{"data":[{"transaction_area":"\u4e2d\u58e2\u5340","transaction_date":"114\/02","object_title":"\u65b0\u6f64A18","object_id":"L0bb107412ca779","address":"\u6625\u5fb7\u8def253\u865f\u5341\u4e00\u6a13","floor":[11],"total_floor":15,"parking_type":["\u5761\u9053\u5e73\u9762"],"transaction_age":5,"total_price":2300,"total_parking_price":110,"parking_amount":1,"unit_price_ping":62.84,"total_area_ping":45.19,"house_area_ping":34.85,"parking_area_ping":10.33,"public_area_ratio":34.86,"building_type":"\u4f4f\u5b85\u5927\u6a13","note":"","note_transform":[],"latitude":"25.01395042003244","longitude":"121.21131547607342","land_area_ping":5.69,"elevator":1,"parking_draw_lots_status":0,"is_special_trade":0},{"transaction_area":"\u4e2d\u58e2\u5340","transaction_date":"114\/01","object_title":"\u65b0\u6f64A18","object_id":"L0bb107412ca779","address":"\u6625\u5fb7\u8def287\u865f\u5341\u4e94\u6a13","floor":[15],"total_floor":15,"parking_type":["\u5761\u9053\u6a5f\u68b0"],"transaction_age":5,"total_price":604,"total_parking_price":100,"parking_amount":1,"unit_price_ping":33.62,"total_area_ping":20.17,"house_area_ping":14.99,"parking_area_ping":5.18,"public_area_ratio":34.83,"building_type":"\u4f4f\u5b85\u5927\u6a13","note":"\u89aa\u53cb\u3001\u54e1\u5de5\u3001\u5171\u6709\u4eba\u6216\u5176\u4ed6\u7279\u6b8a\u95dc\u4fc2\u9593\u4e4b\u4ea4\u6613\uff1b","note_transform":["\u89aa\u5c6c\/\u670b\u53cb\/\u516c\u53f8\u95dc\u4fc2\u6236"],"latitude":"25.01395042003244","longitude":"121.21131547607342","land_area_ping":2.64,"elevator":1,"parking_draw_lots_status":0,"is_special_trade":1},{"transaction_area":"\u4e2d\u58e2\u5340","transaction_date":"114\/01","object_title":"\u65b0\u6f64A18","object_id":"L0bb107412ca779","address":"\u6625\u5fb7\u8def289\u865f\u5341\u4e8c\u6a13","floor":[12],"total_floor":15,"parking_type":["\u5761\u9053\u6a5f\u68b0"],"transaction_age":5,"total_price":1120,"total_parking_price":100,"parking_amount":1,"unit_price_ping":54.43,"total_area_ping":23.91,"house_area_ping":18.74,"parking_area_ping":5.17,"public_area_ratio":34.77,"building_type":"\u4f4f\u5b85\u5927\u6a13","note":"","note_transform":[],"latitude":"25.01395042003244","longitude":"121.21131547607342","land_area_ping":3.33,"elevator":1,"parking_draw_lots_status":0,"is_special_trade":0},{"transaction_area":"\u4e2d\u58e2\u5340","transaction_date":"114\/01","object_title":"\u65b0\u6f64A18","object_id":"L0bb107412ca779","address":"\u6625\u5fb7\u8def271\u865f\u4e94\u6a13","floor":[5],"total_floor":15,"parking_type":["\u5761\u9053\u6a5f\u68b0"],"transaction_age":5,"total_price":1500,"total_parking_price":100,"parking_amount":1,"unit_price_ping":64.28,"total_area_ping":26.95,"house_area_ping":21.78,"parking_area_ping":5.18,"public_area_ratio":34.75,"building_type":"\u4f4f\u5b85\u5927\u6a13","note":"","note_transform":[],"latitude":"25.01395042003244","longitude":"121.21131547607342","land_area_ping":3.47,"elevator":1,"parking_draw_lots_status":0,"is_special_trade":0},{"transaction_area":"\u4e2d\u58e2\u5340","transaction_date":"113\/12","object_title":"\u65b0\u6f64A18","object_id":"L0bb107412ca779","address":"\u6625\u5fb7\u8def297\u865f\u5341\u4e94\u6a13","floor":[15],"total_floor":15,"parking_type":["\u5347\u964d\u6a5f\u68b0"],"transaction_age":5,"total_price":950,"total_parking_price":100,"parking_amount":1,"unit_price_ping":63.62,"total_area_ping":18.53,"house_area_ping":13.36,"parking_area_ping":5.18,"public_area_ratio":34.85,"building_type":"\u4f4f\u5b85\u5927\u6a13","note":"","note_transform":[],"latitude":"25.01395042003244","longitude":"121.21131547607342","land_area_ping":2.36,"elevator":1,"parking_draw_lots_status":0,"is_special_trade":0},{"transaction_area":"\u4e2d\u58e2\u5340","transaction_date":"113\/12","object_title":"\u65b0\u6f64A18","object_id":"L0bb107412ca779","address":"\u6625\u5fb7\u8def265\u865f\u56db\u6a13","floor":[4],"total_floor":15,"parking_type":["\u5761\u9053\u6a5f\u68b0"],"transaction_age":5,"total_price":1000,"total_parking_price":100,"parking_amount":1,"unit_price_ping":40.74,"total_area_ping":27.27,"house_area_ping":22.09,"parking_area_ping":5.18,"public_area_ratio":34.77,"building_type":"\u4f4f\u5b85\u5927\u6a13","note":"","note_transform":[],"latitude":"25.01395042003244","longitude":"121.21131547607342","land_area_ping":3.47,"elevator":1,"parking_draw_lots_status":0,"is_special_trade":0},{"transaction_area":"\u4e2d\u58e2\u5340","transaction_date":"113\/10","object_title":"\u65b0\u6f64A18","object_id":"L0bb107412ca779","address":"\u6625\u5fb7\u8def269\u865f\u5341\u4e00\u6a13","floor":[11],"total_floor":15,"parking_type":["\u5761\u9053\u6a5f\u68b0"],"transaction_age":4,"total_price":1510,"total_parking_price":100,"parking_amount":1,"unit_price_ping":63.97,"total_area_ping":27.21,"house_area_ping":22.04,"parking_area_ping":5.18,"public_area_ratio":34.8,"building_type":"\u4f4f\u5b85\u5927\u6a13","note":"","note_transform":[],"latitude":"25.01395042003244","longitude":"121.21131547607342","land_area_ping":3.47,"elevator":1,"parking_draw_lots_status":0,"is_special_trade":0},{"transaction_area":"\u4e2d\u58e2\u5340","transaction_date":"113\/09","object_title":"\u65b0\u6f64A18","object_id":"L0bb107412ca779","address":"\u6625\u5fb7\u8def301\u865f\u5341\u4e94\u6a13","floor":[15],"total_floor":15,"parking_type":["\u5761\u9053\u5e73\u9762"],"transaction_age":4,"total_price":970,"total_parking_price":100,"parking_amount":1,"unit_price_ping":65.36,"total_area_ping":18.48,"house_area_ping":13.31,"parking_area_ping":5.18,"public_area_ratio":34.83,"building_type":"\u4f4f\u5b85\u5927\u6a13","note":"","note_transform":[],"latitude":"25.01395042003244","longitude":"121.21131547607342","land_area_ping":2.36,"elevator":1,"parking_draw_lots_status":0,"is_special_trade":0},{"transaction_area":"\u4e2d\u58e2\u5340","transaction_date":"113\/09","object_title":"\u65b0\u6f64A18","object_id":"L0bb107412ca779","address":"\u6625\u5fb7\u8def271\u865f\u516d\u6a13","floor":[6],"total_floor":15,"parking_type":[""],"transaction_age":4,"total_price":1285,"total_parking_price":0,"parking_amount":0,"unit_price_ping":59,"total_area_ping":21.78,"house_area_ping":21.78,"parking_area_ping":0,"public_area_ratio":34.75,"building_type":"\u4f4f\u5b85\u5927\u6a13","note":"","note_transform":[],"latitude":"25.01395042003244","longitude":"121.21131547607342","land_area_ping":3.33,"elevator":1,"parking_draw_lots_status":0,"is_special_trade":0},{"transaction_area":"\u4e2d\u58e2\u5340","transaction_date":"113\/09","object_title":"\u65b0\u6f64A18","object_id":"L0bb107412ca779","address":"\u6625\u5fb7\u8def305\u865f\u4e94\u6a13","floor":[5],"total_floor":15,"parking_type":["\u5761\u9053\u5e73\u9762"],"transaction_age":4,"total_price":1000,"total_parking_price":100,"parking_amount":1,"unit_price_ping":67.26,"total_area_ping":18.55,"house_area_ping":13.38,"parking_area_ping":5.18,"public_area_ratio":34.85,"building_type":"\u4f4f\u5b85\u5927\u6a13","note":"","note_transform":[],"latitude":"25.01395042003244","longitude":"121.21131547607342","land_area_ping":2.36,"elevator":1,"parking_draw_lots_status":0,"is_special_trade":0},{"transaction_area":"\u4e2d\u58e2\u5340","transaction_date":"113\/08","object_title":"\u65b0\u6f64A18","object_id":"L0bb107412ca779","address":"\u6625\u5fb7\u8def271\u865f\u4e03\u6a13","floor":[7],"total_floor":15,"parking_type":["\u5761\u9053\u6a5f\u68b0"],"transaction_age":4,"total_price":1500,"total_parking_price":100,"parking_amount":1,"unit_price_ping":64.28,"total_area_ping":26.95,"house_area_ping":21.78,"parking_area_ping":5.18,"public_area_ratio":34.75,"building_type":"\u4f4f\u5b85\u5927\u6a13","note":"","note_transform":[],"latitude":"25.01395042003244","longitude":"121.21131547607342","land_area_ping":3.47,"elevator":1,"parking_draw_lots_status":0,"is_special_trade":0},{"transaction_area":"\u4e2d\u58e2\u5340","transaction_date":"113\/06","object_title":"\u65b0\u6f64A18","object_id":"L0bb107412ca779","address":"\u6625\u5fb7\u8def295\u865f\u4e03\u6a13","floor":[7],"total_floor":15,"parking_type":["\u5761\u9053\u6a5f\u68b0"],"transaction_age":4,"total_price":880,"total_parking_price":100,"parking_amount":1,"unit_price_ping":58.65,"total_area_ping":18.47,"house_area_ping":13.3,"parking_area_ping":5.18,"public_area_ratio":34.8,"building_type":"\u4f4f\u5b85\u5927\u6a13","note":"","note_transform":[],"latitude":"25.01395042003244","longitude":"121.21131547607342","land_area_ping":2.36,"elevator":1,"parking_draw_lots_status":0,"is_special_trade":0},{"transaction_area":"\u4e2d\u58e2\u5340","transaction_date":"113\/06","object_title":"\u65b0\u6f64A18","object_id":"L0bb107412ca779","address":"\u6625\u5fb7\u8def253\u865f\u5341\u4e09\u6a13","floor":[13],"total_floor":15,"parking_type":["\u5761\u9053\u5e73\u9762"],"transaction_age":4,"total_price":2238,"total_parking_price":110,"parking_amount":1,"unit_price_ping":61.06,"total_area_ping":45.19,"house_area_ping":34.85,"parking_area_ping":10.33,"public_area_ratio":34.86,"building_type":"\u4f4f\u5b85\u5927\u6a13","note":"","note_transform":[],"latitude":"25.01395042003244","longitude":"121.21131547607342","land_area_ping":5.69,"elevator":1,"parking_draw_lots_status":0,"is_special_trade":0},{"transaction_area":"\u4e2d\u58e2\u5340","transaction_date":"113\/06","object_title":"\u65b0\u6f64A18","object_id":"L0bb107412ca779","address":"\u6625\u5fb7\u8def289\u865f\u516b\u6a13","floor":[8],"total_floor":15,"parking_type":["\u5761\u9053\u6a5f\u68b0"],"transaction_age":4,"total_price":1125,"total_parking_price":100,"parking_amount":1,"unit_price_ping":54.7,"total_area_ping":23.91,"house_area_ping":18.74,"parking_area_ping":5.17,"public_area_ratio":34.77,"building_type":"\u4f4f\u5b85\u5927\u6a13","note":"","note_transform":[],"latitude":"25.01395042003244","longitude":"121.21131547607342","land_area_ping":3.33,"elevator":1,"parking_draw_lots_status":0,"is_special_trade":0},{"transaction_area":"\u4e2d\u58e2\u5340","transaction_date":"113\/05","object_title":"\u65b0\u6f64A18","object_id":"L0bb107412ca779","address":"\u6625\u5fb7\u8def253\u865f\u516b\u6a13","floor":[8],"total_floor":15,"parking_type":["\u5761\u9053\u5e73\u9762"],"transaction_age":4,"total_price":2288,"total_parking_price":220,"parking_amount":2,"unit_price_ping":59.34,"total_area_ping":53.8,"house_area_ping":34.85,"parking_area_ping":18.95,"public_area_ratio":34.86,"building_type":"\u4f4f\u5b85\u5927\u6a13","note":"","note_transform":[],"latitude":"25.01395042003244","longitude":"121.21131547607342","land_area_ping":5.83,"elevator":1,"parking_draw_lots_status":0,"is_special_trade":0},{"transaction_area":"\u4e2d\u58e2\u5340","transaction_date":"113\/05","object_title":"\u65b0\u6f64A18","object_id":"L0bb107412ca779","address":"\u6625\u5fb7\u8def287\u865f\u56db\u6a13","floor":[4],"total_floor":15,"parking_type":["\u5761\u9053\u6a5f\u68b0"],"transaction_age":4,"total_price":1080,"total_parking_price":100,"parking_amount":1,"unit_price_ping":65.38,"total_area_ping":20.17,"house_area_ping":14.99,"parking_area_ping":5.17,"public_area_ratio":34.85,"building_type":"\u4f4f\u5b85\u5927\u6a13","note":"","note_transform":[],"latitude":"25.01395042003244","longitude":"121.21131547607342","land_area_ping":2.64,"elevator":1,"parking_draw_lots_status":0,"is_special_trade":0},{"transaction_area":"\u4e2d\u58e2\u5340","transaction_date":"113\/04","object_title":"\u65b0\u6f64A18","object_id":"L0bb107412ca779","address":"\u6625\u5fb7\u8def305\u865f\u4e94\u6a13","floor":[5],"total_floor":15,"parking_type":["\u5761\u9053\u6a5f\u68b0"],"transaction_age":4,"total_price":958,"total_parking_price":100,"parking_amount":1,"unit_price_ping":64.13,"total_area_ping":18.55,"house_area_ping":13.38,"parking_area_ping":5.18,"public_area_ratio":34.85,"building_type":"\u4f4f\u5b85\u5927\u6a13","note":"","note_transform":[],"latitude":"25.01395042003244","longitude":"121.21131547607342","land_area_ping":2.36,"elevator":1,"parking_draw_lots_status":0,"is_special_trade":0},{"transaction_area":"\u4e2d\u58e2\u5340","transaction_date":"113\/03","object_title":"\u65b0\u6f64A18","object_id":"L0bb107412ca779","address":"\u6625\u5fb7\u8def261\u865f\u5341\u56db\u6a13","floor":[14],"total_floor":15,"parking_type":["\u5761\u9053\u5e73\u9762"],"transaction_age":4,"total_price":1800,"total_parking_price":110,"parking_amount":1,"unit_price_ping":50.24,"total_area_ping":43.97,"house_area_ping":33.64,"parking_area_ping":10.33,"public_area_ratio":34.86,"building_type":"\u4f4f\u5b85\u5927\u6a13","note":"","note_transform":[],"latitude":"25.01395042003244","longitude":"121.21131547607342","land_area_ping":5.41,"elevator":1,"parking_draw_lots_status":0,"is_special_trade":0},{"transaction_area":"\u4e2d\u58e2\u5340","transaction_date":"113\/03","object_title":"\u65b0\u6f64A18","object_id":"L0bb107412ca779","address":"\u6625\u5fb7\u8def267\u865f\u5341\u56db\u6a13","floor":[14],"total_floor":15,"parking_type":["\u5761\u9053\u6a5f\u68b0"],"transaction_age":4,"total_price":1450,"total_parking_price":100,"parking_amount":1,"unit_price_ping":61.28,"total_area_ping":27.21,"house_area_ping":22.03,"parking_area_ping":5.18,"public_area_ratio":34.81,"building_type":"\u4f4f\u5b85\u5927\u6a13","note":"","note_transform":[],"latitude":"25.01395042003244","longitude":"121.21131547607342","land_area_ping":3.47,"elevator":1,"parking_draw_lots_status":0,"is_special_trade":0},{"transaction_area":"\u4e2d\u58e2\u5340","transaction_date":"112\/12","object_title":"\u65b0\u6f64A18","object_id":"L0bb107412ca779","address":"\u6625\u5fb7\u8def255\u865f\u4e5d\u6a13","floor":[9],"total_floor":15,"parking_type":["\u5761\u9053\u5e73\u9762"],"transaction_age":4,"total_price":1640,"total_parking_price":110,"parking_amount":1,"unit_price_ping":57.65,"total_area_ping":36.88,"house_area_ping":26.54,"parking_area_ping":10.33,"public_area_ratio":36.59,"building_type":"\u4f4f\u5b85\u5927\u6a13","note":"","note_transform":[],"latitude":"25.01395042003244","longitude":"121.21131547607342","land_area_ping":4.16,"elevator":1,"parking_draw_lots_status":0,"is_special_trade":0}],"meta":{"total":844,"per_page":100,"current_page":2,"last_page":9,"from":101,"to":200}}