{"data":[{"transaction_area":"\u4e2d\u58e2\u5340","transaction_date":"112\/12","object_title":"\u65b0\u6f64A18","object_id":"L0bb107412ca779","address":"\u6625\u5fb7\u8def259\u865f\u4e94\u6a13","floor":[5],"total_floor":15,"parking_type":["\u5761\u9053\u5e73\u9762"],"transaction_age":4,"total_price":1600,"total_parking_price":110,"parking_amount":1,"unit_price_ping":58.59,"total_area_ping":35.76,"house_area_ping":25.43,"parking_area_ping":10.33,"public_area_ratio":34.78,"building_type":"\u4f4f\u5b85\u5927\u6a13","note":"","note_transform":[],"latitude":"25.01395042003244","longitude":"121.21131547607342","land_area_ping":4.02,"elevator":1,"parking_draw_lots_status":0,"is_special_trade":0},{"transaction_area":"\u4e2d\u58e2\u5340","transaction_date":"112\/12","object_title":"\u65b0\u6f64A18","object_id":"L0bb107412ca779","address":"\u6625\u5fb7\u8def285\u865f\u5341\u4e09\u6a13","floor":[13],"total_floor":15,"parking_type":["\u5761\u9053\u6a5f\u68b0"],"transaction_age":4,"total_price":955,"total_parking_price":100,"parking_amount":1,"unit_price_ping":56.96,"total_area_ping":20.18,"house_area_ping":15.01,"parking_area_ping":5.18,"public_area_ratio":34.87,"building_type":"\u4f4f\u5b85\u5927\u6a13","note":"","note_transform":[],"latitude":"25.01395042003244","longitude":"121.21131547607342","land_area_ping":2.64,"elevator":1,"parking_draw_lots_status":0,"is_special_trade":0},{"transaction_area":"\u4e2d\u58e2\u5340","transaction_date":"112\/12","object_title":"\u65b0\u6f64A18","object_id":"L0bb107412ca779","address":"\u6625\u5fb7\u8def259\u865f\u5341\u4e8c\u6a13","floor":[12],"total_floor":15,"parking_type":["\u5761\u9053\u5e73\u9762"],"transaction_age":4,"total_price":1688,"total_parking_price":110,"parking_amount":1,"unit_price_ping":62.05,"total_area_ping":35.76,"house_area_ping":25.43,"parking_area_ping":10.33,"public_area_ratio":34.78,"building_type":"\u4f4f\u5b85\u5927\u6a13","note":"","note_transform":[],"latitude":"25.01395042003244","longitude":"121.21131547607342","land_area_ping":4.02,"elevator":1,"parking_draw_lots_status":0,"is_special_trade":0},{"transaction_area":"\u4e2d\u58e2\u5340","transaction_date":"112\/11","object_title":"\u65b0\u6f64A18","object_id":"L0bb107412ca779","address":"\u6625\u5fb7\u8def277\u865f\u5341\u4e09\u6a13","floor":[13],"total_floor":15,"parking_type":["\u5761\u9053\u6a5f\u68b0"],"transaction_age":4,"total_price":1088,"total_parking_price":100,"parking_amount":1,"unit_price_ping":50.2,"total_area_ping":24.85,"house_area_ping":19.68,"parking_area_ping":5.17,"public_area_ratio":34.76,"building_type":"\u4f4f\u5b85\u5927\u6a13","note":"","note_transform":[],"latitude":"25.01395042003244","longitude":"121.21131547607342","land_area_ping":3.47,"elevator":1,"parking_draw_lots_status":0,"is_special_trade":0},{"transaction_area":"\u4e2d\u58e2\u5340","transaction_date":"112\/11","object_title":"\u65b0\u6f64A18","object_id":"L0bb107412ca779","address":"\u6625\u5fb7\u8def273\u865f\u4e8c\u6a13","floor":[2],"total_floor":15,"parking_type":["\u5761\u9053\u5e73\u9762"],"transaction_age":3,"total_price":1690,"total_parking_price":160,"parking_amount":1,"unit_price_ping":45.36,"total_area_ping":44.06,"house_area_ping":33.73,"parking_area_ping":10.33,"public_area_ratio":34.82,"building_type":"\u4f4f\u5b85\u5927\u6a13","note":"","note_transform":[],"latitude":"25.01395042003244","longitude":"121.21131547607342","land_area_ping":5.69,"elevator":1,"parking_draw_lots_status":0,"is_special_trade":0},{"transaction_area":"\u4e2d\u58e2\u5340","transaction_date":"112\/11","object_title":"\u65b0\u6f64A18","object_id":"L0bb107412ca779","address":"\u6625\u5fb7\u8def281\u865f\u56db\u6a13","floor":[4],"total_floor":15,"parking_type":["\u5761\u9053\u6a5f\u68b0"],"transaction_age":3,"total_price":856,"total_parking_price":100,"parking_amount":1,"unit_price_ping":50.47,"total_area_ping":20.16,"house_area_ping":14.98,"parking_area_ping":5.17,"public_area_ratio":34.87,"building_type":"\u4f4f\u5b85\u5927\u6a13","note":"","note_transform":[],"latitude":"25.01395042003244","longitude":"121.21131547607342","land_area_ping":2.64,"elevator":1,"parking_draw_lots_status":0,"is_special_trade":0},{"transaction_area":"\u4e2d\u58e2\u5340","transaction_date":"112\/10","object_title":"\u65b0\u6f64A18","object_id":"L0bb107412ca779","address":"\u6625\u5fb7\u8def275\u865f\u4e5d\u6a13","floor":[9],"total_floor":15,"parking_type":["\u5761\u9053\u5e73\u9762"],"transaction_age":3,"total_price":1528,"total_parking_price":110,"parking_amount":1,"unit_price_ping":53.92,"total_area_ping":36.64,"house_area_ping":26.3,"parking_area_ping":10.33,"public_area_ratio":34.93,"building_type":"\u4f4f\u5b85\u5927\u6a13","note":"","note_transform":[],"latitude":"25.01395042003244","longitude":"121.21131547607342","land_area_ping":4.3,"elevator":1,"parking_draw_lots_status":0,"is_special_trade":0},{"transaction_area":"\u4e2d\u58e2\u5340","transaction_date":"112\/10","object_title":"\u65b0\u6f64A18","object_id":"L0bb107412ca779","address":"\u6625\u5fb7\u8def305\u865f\u516d\u6a13","floor":[6],"total_floor":15,"parking_type":["\u5761\u9053\u6a5f\u68b0"],"transaction_age":3,"total_price":850,"total_parking_price":100,"parking_amount":1,"unit_price_ping":56.05,"total_area_ping":18.55,"house_area_ping":13.38,"parking_area_ping":5.18,"public_area_ratio":34.85,"building_type":"\u4f4f\u5b85\u5927\u6a13","note":"","note_transform":[],"latitude":"25.01395042003244","longitude":"121.21131547607342","land_area_ping":2.36,"elevator":1,"parking_draw_lots_status":0,"is_special_trade":0},{"transaction_area":"\u4e2d\u58e2\u5340","transaction_date":"112\/10","object_title":"\u65b0\u6f64A18","object_id":"L0bb107412ca779","address":"\u6625\u5fb7\u8def259\u865f\u4e09\u6a13","floor":[3],"total_floor":15,"parking_type":["\u5761\u9053\u6a5f\u68b0"],"transaction_age":3,"total_price":1395,"total_parking_price":100,"parking_amount":1,"unit_price_ping":50.92,"total_area_ping":30.6,"house_area_ping":25.43,"parking_area_ping":5.18,"public_area_ratio":34.78,"building_type":"\u4f4f\u5b85\u5927\u6a13","note":"","note_transform":[],"latitude":"25.01395042003244","longitude":"121.21131547607342","land_area_ping":4.02,"elevator":1,"parking_draw_lots_status":0,"is_special_trade":0},{"transaction_area":"\u4e2d\u58e2\u5340","transaction_date":"112\/09","object_title":"\u65b0\u6f64A18","object_id":"L0bb107412ca779","address":"\u6625\u5fb7\u8def287\u865f\u5341\u6a13","floor":[10],"total_floor":15,"parking_type":["\u5761\u9053\u6a5f\u68b0"],"transaction_age":3,"total_price":890,"total_parking_price":100,"parking_amount":1,"unit_price_ping":52.7,"total_area_ping":20.17,"house_area_ping":14.99,"parking_area_ping":5.17,"public_area_ratio":34.85,"building_type":"\u4f4f\u5b85\u5927\u6a13","note":"","note_transform":[],"latitude":"25.01395042003244","longitude":"121.21131547607342","land_area_ping":2.64,"elevator":1,"parking_draw_lots_status":0,"is_special_trade":0},{"transaction_area":"\u4e2d\u58e2\u5340","transaction_date":"112\/09","object_title":"\u65b0\u6f64A18","object_id":"L0bb107412ca779","address":"\u6625\u5fb7\u8def269\u865f\u5341\u4e8c\u6a13","floor":[12],"total_floor":15,"parking_type":["\u5761\u9053\u5e73\u9762"],"transaction_age":3,"total_price":1356,"total_parking_price":150,"parking_amount":1,"unit_price_ping":54.72,"total_area_ping":33.1,"house_area_ping":22.04,"parking_area_ping":11.07,"public_area_ratio":34.8,"building_type":"\u4f4f\u5b85\u5927\u6a13","note":"","note_transform":[],"latitude":"25.01395042003244","longitude":"121.21131547607342","land_area_ping":3.47,"elevator":1,"parking_draw_lots_status":0,"is_special_trade":0},{"transaction_area":"\u4e2d\u58e2\u5340","transaction_date":"112\/09","object_title":"\u65b0\u6f64A18","object_id":"L0bb107412ca779","address":"\u6625\u5fb7\u8def277\u865f\u4e03\u6a13","floor":[7],"total_floor":15,"parking_type":["\u5761\u9053\u6a5f\u68b0"],"transaction_age":3,"total_price":1068,"total_parking_price":100,"parking_amount":1,"unit_price_ping":49.21,"total_area_ping":24.85,"house_area_ping":19.67,"parking_area_ping":5.18,"public_area_ratio":34.75,"building_type":"\u4f4f\u5b85\u5927\u6a13","note":"","note_transform":[],"latitude":"25.01395042003244","longitude":"121.21131547607342","land_area_ping":3.47,"elevator":1,"parking_draw_lots_status":0,"is_special_trade":0},{"transaction_area":"\u4e2d\u58e2\u5340","transaction_date":"112\/07","object_title":"\u65b0\u6f64A18","object_id":"L0bb107412ca779","address":"\u6625\u5fb7\u8def277\u865f\u5341\u4e8c\u6a13","floor":[12],"total_floor":15,"parking_type":["\u5761\u9053\u6a5f\u68b0"],"transaction_age":3,"total_price":1058,"total_parking_price":100,"parking_amount":1,"unit_price_ping":48.7,"total_area_ping":24.85,"house_area_ping":19.67,"parking_area_ping":5.18,"public_area_ratio":34.75,"building_type":"\u4f4f\u5b85\u5927\u6a13","note":"","note_transform":[],"latitude":"25.01395042003244","longitude":"121.21131547607342","land_area_ping":3.47,"elevator":1,"parking_draw_lots_status":0,"is_special_trade":0},{"transaction_area":"\u4e2d\u58e2\u5340","transaction_date":"112\/06","object_title":"\u65b0\u6f64A18","object_id":"L0bb107412ca779","address":"\u6625\u5fb7\u8def269\u865f\u4e94\u6a13","floor":[5],"total_floor":15,"parking_type":["\u5761\u9053\u6a5f\u68b0"],"transaction_age":3,"total_price":830,"total_parking_price":100,"parking_amount":1,"unit_price_ping":33.12,"total_area_ping":27.21,"house_area_ping":22.04,"parking_area_ping":5.18,"public_area_ratio":34.8,"building_type":"\u4f4f\u5b85\u5927\u6a13","note":"\u89aa\u53cb\u3001\u54e1\u5de5\u3001\u5171\u6709\u4eba\u6216\u5176\u4ed6\u7279\u6b8a\u95dc\u4fc2\u9593\u4e4b\u4ea4\u6613\uff1b","note_transform":["\u89aa\u5c6c\/\u670b\u53cb\/\u516c\u53f8\u95dc\u4fc2\u6236"],"latitude":"25.01395042003244","longitude":"121.21131547607342","land_area_ping":3.47,"elevator":1,"parking_draw_lots_status":0,"is_special_trade":1},{"transaction_area":"\u4e2d\u58e2\u5340","transaction_date":"112\/06","object_title":"\u65b0\u6f64A18","object_id":"L0bb107412ca779","address":"\u6625\u5fb7\u8def261\u865f\u4e8c\u6a13","floor":[2],"total_floor":15,"parking_type":["\u5761\u9053\u5e73\u9762"],"transaction_age":3,"total_price":1798,"total_parking_price":110,"parking_amount":1,"unit_price_ping":52.78,"total_area_ping":42.31,"house_area_ping":31.98,"parking_area_ping":10.33,"public_area_ratio":34.84,"building_type":"\u4f4f\u5b85\u5927\u6a13","note":"","note_transform":[],"latitude":"25.01395042003244","longitude":"121.21131547607342","land_area_ping":5.41,"elevator":1,"parking_draw_lots_status":0,"is_special_trade":0},{"transaction_area":"\u4e2d\u58e2\u5340","transaction_date":"112\/03","object_title":"\u65b0\u6f64A18","object_id":"L0bb107412ca779","address":"\u6625\u5fb7\u8def305\u865f\u5341\u6a13","floor":[10],"total_floor":15,"parking_type":["\u5761\u9053\u6a5f\u68b0"],"transaction_age":3,"total_price":790,"total_parking_price":100,"parking_amount":1,"unit_price_ping":51.57,"total_area_ping":18.55,"house_area_ping":13.38,"parking_area_ping":5.17,"public_area_ratio":34.86,"building_type":"\u4f4f\u5b85\u5927\u6a13","note":"","note_transform":[],"latitude":"25.01395042003244","longitude":"121.21131547607342","land_area_ping":2.36,"elevator":1,"parking_draw_lots_status":0,"is_special_trade":0},{"transaction_area":"\u4e2d\u58e2\u5340","transaction_date":"112\/01","object_title":"\u65b0\u6f64A18","object_id":"L0bb107412ca779","address":"\u6625\u5fb7\u8def259\u865f\u4e8c\u6a13","floor":[2],"total_floor":15,"parking_type":["\u5761\u9053\u5e73\u9762"],"transaction_age":3,"total_price":1230,"total_parking_price":110,"parking_amount":1,"unit_price_ping":45.55,"total_area_ping":34.93,"house_area_ping":24.59,"parking_area_ping":10.33,"public_area_ratio":34.88,"building_type":"\u4f4f\u5b85\u5927\u6a13","note":"\u672c\u6848\u8cb7\u8ce3\u96d9\u65b9\u5354\u8b70\u3001\u571f\u5730\u91d1\u984d\uff1a7872000\u5143\u3001\u5efa\u7269\u91d1\u984d:4428000\u5143","note_transform":[],"latitude":"25.01395042003244","longitude":"121.21131547607342","land_area_ping":4.02,"elevator":1,"parking_draw_lots_status":0,"is_special_trade":0},{"transaction_area":"\u4e2d\u58e2\u5340","transaction_date":"112\/01","object_title":"\u65b0\u6f64A18","object_id":"L0bb107412ca779","address":"\u6625\u5fb7\u8def291\u865f\u4e5d\u6a13","floor":[9],"total_floor":15,"parking_type":["\u5761\u9053\u5e73\u9762"],"transaction_age":3,"total_price":1450,"total_parking_price":110,"parking_amount":1,"unit_price_ping":50.82,"total_area_ping":36.7,"house_area_ping":26.37,"parking_area_ping":10.33,"public_area_ratio":34.84,"building_type":"\u4f4f\u5b85\u5927\u6a13","note":"","note_transform":[],"latitude":"25.01395042003244","longitude":"121.21131547607342","land_area_ping":4.3,"elevator":1,"parking_draw_lots_status":0,"is_special_trade":0},{"transaction_area":"\u4e2d\u58e2\u5340","transaction_date":"111\/12","object_title":"\u65b0\u6f64A18","object_id":"L0bb107412ca779","address":"\u6625\u5fb7\u8def285\u865f\u4e03\u6a13","floor":[7],"total_floor":15,"parking_type":["\u5761\u9053\u5e73\u9762"],"transaction_age":3,"total_price":830,"total_parking_price":100,"parking_amount":1,"unit_price_ping":48.63,"total_area_ping":20.18,"house_area_ping":15.01,"parking_area_ping":5.17,"public_area_ratio":34.89,"building_type":"\u4f4f\u5b85\u5927\u6a13","note":"","note_transform":[],"latitude":"25.01395042003244","longitude":"121.21131547607342","land_area_ping":2.64,"elevator":1,"parking_draw_lots_status":0,"is_special_trade":0},{"transaction_area":"\u4e2d\u58e2\u5340","transaction_date":"111\/09","object_title":"\u65b0\u6f64A18","object_id":"L0bb107412ca779","address":"\u6625\u5fb7\u8def301\u865f\u5341\u4e8c\u6a13","floor":[12],"total_floor":15,"parking_type":["\u5761\u9053\u5e73\u9762"],"transaction_age":2,"total_price":830,"total_parking_price":150,"parking_amount":1,"unit_price_ping":51.09,"total_area_ping":23.64,"house_area_ping":13.31,"parking_area_ping":10.33,"public_area_ratio":34.83,"building_type":"\u4f4f\u5b85\u5927\u6a13","note":"","note_transform":[],"latitude":"25.01395042003244","longitude":"121.21131547607342","land_area_ping":2.36,"elevator":1,"parking_draw_lots_status":0,"is_special_trade":0}],"meta":{"total":844,"per_page":100,"current_page":3,"last_page":9,"from":201,"to":300}}