{"data":[{"transaction_area":"\u4e2d\u58e2\u5340","transaction_date":"115\/03","object_title":"\u65b0\u6f64A18","object_id":"L0bb107412ca779","address":"\u6625\u5fb7\u8def301\u865f13\u6a13","floor":[13],"total_floor":15,"parking_type":["\u5761\u9053\u6a5f\u68b0"],"transaction_age":6,"total_price":850,"total_parking_price":100,"parking_amount":1,"unit_price_ping":56.35,"total_area_ping":18.48,"house_area_ping":13.31,"parking_area_ping":5.18,"public_area_ratio":34.83,"building_type":"\u4f4f\u5b85\u5927\u6a13","note":"","note_transform":[],"latitude":"25.01395042003244","longitude":"121.21131547607342","land_area_ping":2.36,"elevator":1,"parking_draw_lots_status":0,"is_special_trade":0},{"transaction_area":"\u4e2d\u58e2\u5340","transaction_date":"115\/01","object_title":"\u65b0\u6f64A18","object_id":"L0bb107412ca779","address":"\u6625\u5fb7\u8def269\u865f15\u6a13","floor":[15],"total_floor":15,"parking_type":["\u5761\u9053\u6a5f\u68b0"],"transaction_age":6,"total_price":1398,"total_parking_price":100,"parking_amount":1,"unit_price_ping":58.89,"total_area_ping":27.21,"house_area_ping":22.04,"parking_area_ping":5.18,"public_area_ratio":34.8,"building_type":"\u4f4f\u5b85\u5927\u6a13","note":"","note_transform":[],"latitude":"25.01395042003244","longitude":"121.21131547607342","land_area_ping":3.47,"elevator":1,"parking_draw_lots_status":0,"is_special_trade":0},{"transaction_area":"\u4e2d\u58e2\u5340","transaction_date":"115\/01","object_title":"\u65b0\u6f64A18","object_id":"L0bb107412ca779","address":"\u6625\u5fb7\u8def265\u865f9\u6a13","floor":[9],"total_floor":15,"parking_type":["\u5761\u9053\u5e73\u9762"],"transaction_age":6,"total_price":1480,"total_parking_price":110,"parking_amount":1,"unit_price_ping":62.02,"total_area_ping":32.42,"house_area_ping":22.09,"parking_area_ping":10.33,"public_area_ratio":34.77,"building_type":"\u4f4f\u5b85\u5927\u6a13","note":"","note_transform":[],"latitude":"25.01395042003244","longitude":"121.21131547607342","land_area_ping":3.47,"elevator":1,"parking_draw_lots_status":0,"is_special_trade":0},{"transaction_area":"\u4e2d\u58e2\u5340","transaction_date":"114\/12","object_title":"\u65b0\u6f64A18","object_id":"L0bb107412ca779","address":"\u6625\u5fb7\u8def279\u865f15\u6a13","floor":[15],"total_floor":15,"parking_type":["\u5761\u9053\u6a5f\u68b0"],"transaction_age":6,"total_price":980,"total_parking_price":100,"parking_amount":1,"unit_price_ping":58.63,"total_area_ping":20.19,"house_area_ping":15.01,"parking_area_ping":5.17,"public_area_ratio":34.88,"building_type":"\u4f4f\u5b85\u5927\u6a13","note":"","note_transform":[],"latitude":"25.01395042003244","longitude":"121.21131547607342","land_area_ping":2.64,"elevator":1,"parking_draw_lots_status":0,"is_special_trade":0},{"transaction_area":"\u4e2d\u58e2\u5340","transaction_date":"114\/10","object_title":"\u65b0\u6f64A18","object_id":"L0bb107412ca779","address":"\u6625\u5fb7\u8def285\u865f\u4e94\u6a13","floor":[5],"total_floor":15,"parking_type":["\u5761\u9053\u5e73\u9762"],"transaction_age":5,"total_price":980,"total_parking_price":100,"parking_amount":1,"unit_price_ping":58.63,"total_area_ping":20.18,"house_area_ping":15.01,"parking_area_ping":5.18,"public_area_ratio":34.87,"building_type":"\u4f4f\u5b85\u5927\u6a13","note":"","note_transform":[],"latitude":"25.01395042003244","longitude":"121.21131547607342","land_area_ping":2.64,"elevator":1,"parking_draw_lots_status":0,"is_special_trade":0},{"transaction_area":"\u4e2d\u58e2\u5340","transaction_date":"114\/09","object_title":"\u65b0\u6f64A18","object_id":"L0bb107412ca779","address":"\u6625\u5fb7\u8def291\u865f\u5341\u4e94\u6a13","floor":[15],"total_floor":15,"parking_type":["\u5761\u9053\u5e73\u9762"],"transaction_age":5,"total_price":1628,"total_parking_price":110,"parking_amount":1,"unit_price_ping":57.65,"total_area_ping":36.67,"house_area_ping":26.33,"parking_area_ping":10.33,"public_area_ratio":34.75,"building_type":"\u4f4f\u5b85\u5927\u6a13","note":"","note_transform":[],"latitude":"25.01395042003244","longitude":"121.21131547607342","land_area_ping":4.3,"elevator":1,"parking_draw_lots_status":0,"is_special_trade":0},{"transaction_area":"\u4e2d\u58e2\u5340","transaction_date":"114\/09","object_title":"\u65b0\u6f64A18","object_id":"L0bb107412ca779","address":"\u6625\u5fb7\u8def305\u865f\u5341\u4e94\u6a13","floor":[15],"total_floor":15,"parking_type":["\u5761\u9053\u6a5f\u68b0"],"transaction_age":5,"total_price":933,"total_parking_price":100,"parking_amount":1,"unit_price_ping":62.26,"total_area_ping":18.55,"house_area_ping":13.38,"parking_area_ping":5.17,"public_area_ratio":34.86,"building_type":"\u4f4f\u5b85\u5927\u6a13","note":"","note_transform":[],"latitude":"25.01395042003244","longitude":"121.21131547607342","land_area_ping":2.36,"elevator":1,"parking_draw_lots_status":0,"is_special_trade":0},{"transaction_area":"\u4e2d\u58e2\u5340","transaction_date":"114\/08","object_title":"\u65b0\u6f64A18","object_id":"L0bb107412ca779","address":"\u6625\u5fb7\u8def307\u865f\u516b\u6a13","floor":[8],"total_floor":15,"parking_type":["\u5761\u9053\u6a5f\u68b0"],"transaction_age":5,"total_price":930,"total_parking_price":100,"parking_amount":1,"unit_price_ping":60.32,"total_area_ping":18.94,"house_area_ping":13.76,"parking_area_ping":5.18,"public_area_ratio":34.75,"building_type":"\u4f4f\u5b85\u5927\u6a13","note":"","note_transform":[],"latitude":"25.01395042003244","longitude":"121.21131547607342","land_area_ping":2.36,"elevator":1,"parking_draw_lots_status":0,"is_special_trade":0},{"transaction_area":"\u4e2d\u58e2\u5340","transaction_date":"114\/08","object_title":"\u65b0\u6f64A18","object_id":"L0bb107412ca779","address":"\u6625\u5fb7\u8def303\u865f\u4e5d\u6a13","floor":[9],"total_floor":15,"parking_type":["\u5347\u964d\u6a5f\u68b0"],"transaction_age":5,"total_price":918,"total_parking_price":100,"parking_amount":1,"unit_price_ping":61.14,"total_area_ping":18.56,"house_area_ping":13.38,"parking_area_ping":5.17,"public_area_ratio":34.86,"building_type":"\u4f4f\u5b85\u5927\u6a13","note":"","note_transform":[],"latitude":"25.01395042003244","longitude":"121.21131547607342","land_area_ping":2.36,"elevator":1,"parking_draw_lots_status":0,"is_special_trade":0},{"transaction_area":"\u4e2d\u58e2\u5340","transaction_date":"114\/07","object_title":"\u65b0\u6f64A18","object_id":"L0bb107412ca779","address":"\u6625\u5fb7\u8def271\u865f\u5341\u56db\u6a13","floor":[14],"total_floor":15,"parking_type":["\u5761\u9053\u6a5f\u68b0"],"transaction_age":5,"total_price":1250,"total_parking_price":200,"parking_amount":1,"unit_price_ping":48.21,"total_area_ping":26.95,"house_area_ping":21.78,"parking_area_ping":5.18,"public_area_ratio":34.75,"building_type":"\u4f4f\u5b85\u5927\u6a13","note":"\u89aa\u53cb\u3001\u54e1\u5de5\u3001\u5171\u6709\u4eba\u6216\u5176\u4ed6\u7279\u6b8a\u95dc\u4fc2\u9593\u4e4b\u4ea4\u6613\uff1b","note_transform":["\u89aa\u5c6c\/\u670b\u53cb\/\u516c\u53f8\u95dc\u4fc2\u6236"],"latitude":"25.01395042003244","longitude":"121.21131547607342","land_area_ping":3.47,"elevator":1,"parking_draw_lots_status":0,"is_special_trade":1},{"transaction_area":"\u4e2d\u58e2\u5340","transaction_date":"114\/07","object_title":"\u65b0\u6f64A18","object_id":"L0bb107412ca779","address":"\u6625\u5fb7\u8def287\u865f\u4e03\u6a13","floor":[7],"total_floor":15,"parking_type":["\u5761\u9053\u6a5f\u68b0"],"transaction_age":5,"total_price":956,"total_parking_price":100,"parking_amount":1,"unit_price_ping":57.1,"total_area_ping":20.17,"house_area_ping":14.99,"parking_area_ping":5.17,"public_area_ratio":34.85,"building_type":"\u4f4f\u5b85\u5927\u6a13","note":"","note_transform":[],"latitude":"25.01395042003244","longitude":"121.21131547607342","land_area_ping":2.64,"elevator":1,"parking_draw_lots_status":0,"is_special_trade":0},{"transaction_area":"\u4e2d\u58e2\u5340","transaction_date":"114\/07","object_title":"\u65b0\u6f64A18","object_id":"L0bb107412ca779","address":"\u6625\u5fb7\u8def283\u865f\u5341\u6a13","floor":[10],"total_floor":15,"parking_type":["\u5761\u9053\u6a5f\u68b0"],"transaction_age":5,"total_price":1010,"total_parking_price":200,"parking_amount":1,"unit_price_ping":54.36,"total_area_ping":20.08,"house_area_ping":14.9,"parking_area_ping":5.18,"public_area_ratio":34.82,"building_type":"\u4f4f\u5b85\u5927\u6a13","note":"","note_transform":[],"latitude":"25.01395042003244","longitude":"121.21131547607342","land_area_ping":2.64,"elevator":1,"parking_draw_lots_status":0,"is_special_trade":0},{"transaction_area":"\u4e2d\u58e2\u5340","transaction_date":"114\/07","object_title":"\u65b0\u6f64A18","object_id":"L0bb107412ca779","address":"\u6625\u5fb7\u8def299\u865f\u5341\u4e09\u6a13","floor":[13],"total_floor":15,"parking_type":["\u5761\u9053\u6a5f\u68b0"],"transaction_age":5,"total_price":930,"total_parking_price":200,"parking_amount":1,"unit_price_ping":54.44,"total_area_ping":18.58,"house_area_ping":13.41,"parking_area_ping":5.17,"public_area_ratio":34.84,"building_type":"\u4f4f\u5b85\u5927\u6a13","note":"","note_transform":[],"latitude":"25.01395042003244","longitude":"121.21131547607342","land_area_ping":2.36,"elevator":1,"parking_draw_lots_status":0,"is_special_trade":0},{"transaction_area":"\u4e2d\u58e2\u5340","transaction_date":"114\/07","object_title":"\u65b0\u6f64A18","object_id":"L0bb107412ca779","address":"\u6625\u5fb7\u8def259\u865f\u5341\u4e00\u6a13","floor":[11],"total_floor":15,"parking_type":["\u5761\u9053\u6a5f\u68b0"],"transaction_age":5,"total_price":1750,"total_parking_price":200,"parking_amount":1,"unit_price_ping":60.95,"total_area_ping":30.6,"house_area_ping":25.43,"parking_area_ping":5.18,"public_area_ratio":34.78,"building_type":"\u4f4f\u5b85\u5927\u6a13","note":"","note_transform":[],"latitude":"25.01395042003244","longitude":"121.21131547607342","land_area_ping":4.02,"elevator":1,"parking_draw_lots_status":0,"is_special_trade":0},{"transaction_area":"\u4e2d\u58e2\u5340","transaction_date":"114\/05","object_title":"\u65b0\u6f64A18","object_id":"L0bb107412ca779","address":"\u6625\u5fb7\u8def277\u865f\u5341\u4e94\u6a13","floor":[15],"total_floor":15,"parking_type":["\u5761\u9053\u6a5f\u68b0"],"transaction_age":5,"total_price":1288,"total_parking_price":100,"parking_amount":1,"unit_price_ping":60.4,"total_area_ping":24.85,"house_area_ping":19.67,"parking_area_ping":5.18,"public_area_ratio":34.75,"building_type":"\u4f4f\u5b85\u5927\u6a13","note":"","note_transform":[],"latitude":"25.01395042003244","longitude":"121.21131547607342","land_area_ping":3.47,"elevator":1,"parking_draw_lots_status":0,"is_special_trade":0},{"transaction_area":"\u4e2d\u58e2\u5340","transaction_date":"114\/05","object_title":"\u65b0\u6f64A18","object_id":"L0bb107412ca779","address":"\u6625\u5fb7\u8def269\u865f\u516b\u6a13","floor":[8],"total_floor":15,"parking_type":["\u5761\u9053\u6a5f\u68b0"],"transaction_age":5,"total_price":1356,"total_parking_price":100,"parking_amount":1,"unit_price_ping":56.99,"total_area_ping":27.21,"house_area_ping":22.04,"parking_area_ping":5.18,"public_area_ratio":34.8,"building_type":"\u4f4f\u5b85\u5927\u6a13","note":"","note_transform":[],"latitude":"25.01395042003244","longitude":"121.21131547607342","land_area_ping":3.47,"elevator":1,"parking_draw_lots_status":0,"is_special_trade":0},{"transaction_area":"\u4e2d\u58e2\u5340","transaction_date":"114\/04","object_title":"\u65b0\u6f64A18","object_id":"L0bb107412ca779","address":"\u6625\u5fb7\u8def269\u865f\u5341\u4e09\u6a13","floor":[13],"total_floor":15,"parking_type":["\u5761\u9053\u5e73\u9762"],"transaction_age":5,"total_price":1514,"total_parking_price":110,"parking_amount":1,"unit_price_ping":63.7,"total_area_ping":32.37,"house_area_ping":22.04,"parking_area_ping":10.33,"public_area_ratio":34.8,"building_type":"\u4f4f\u5b85\u5927\u6a13","note":"","note_transform":[],"latitude":"25.01395042003244","longitude":"121.21131547607342","land_area_ping":3.47,"elevator":1,"parking_draw_lots_status":0,"is_special_trade":0},{"transaction_area":"\u4e2d\u58e2\u5340","transaction_date":"114\/04","object_title":"\u65b0\u6f64A18","object_id":"L0bb107412ca779","address":"\u6625\u5fb7\u8def281\u865f\u516b\u6a13","floor":[8],"total_floor":15,"parking_type":[""],"transaction_age":5,"total_price":890,"total_parking_price":0,"parking_amount":0,"unit_price_ping":59.41,"total_area_ping":14.98,"house_area_ping":14.98,"parking_area_ping":0,"public_area_ratio":34.85,"building_type":"\u4f4f\u5b85\u5927\u6a13","note":"","note_transform":[],"latitude":"25.01395042003244","longitude":"121.21131547607342","land_area_ping":2.5,"elevator":1,"parking_draw_lots_status":0,"is_special_trade":0},{"transaction_area":"\u4e2d\u58e2\u5340","transaction_date":"114\/03","object_title":"\u65b0\u6f64A18","object_id":"L0bb107412ca779","address":"\u6625\u5fb7\u8def295\u865f\u4e09\u6a13","floor":[3],"total_floor":15,"parking_type":["\u5761\u9053\u6a5f\u68b0"],"transaction_age":5,"total_price":988,"total_parking_price":100,"parking_amount":1,"unit_price_ping":66.77,"total_area_ping":18.47,"house_area_ping":13.3,"parking_area_ping":5.18,"public_area_ratio":34.8,"building_type":"\u4f4f\u5b85\u5927\u6a13","note":"","note_transform":[],"latitude":"25.01395042003244","longitude":"121.21131547607342","land_area_ping":2.36,"elevator":1,"parking_draw_lots_status":0,"is_special_trade":0},{"transaction_area":"\u4e2d\u58e2\u5340","transaction_date":"114\/02","object_title":"\u65b0\u6f64A18","object_id":"L0bb107412ca779","address":"\u6625\u5fb7\u8def295\u865f\u5341\u6a13","floor":[10],"total_floor":15,"parking_type":["\u5761\u9053\u6a5f\u68b0"],"transaction_age":5,"total_price":535,"total_parking_price":100,"parking_amount":1,"unit_price_ping":32.71,"total_area_ping":18.47,"house_area_ping":13.3,"parking_area_ping":5.18,"public_area_ratio":34.8,"building_type":"\u4f4f\u5b85\u5927\u6a13","note":"\u89aa\u53cb\u3001\u54e1\u5de5\u3001\u5171\u6709\u4eba\u6216\u5176\u4ed6\u7279\u6b8a\u95dc\u4fc2\u9593\u4e4b\u4ea4\u6613\uff1b","note_transform":["\u89aa\u5c6c\/\u670b\u53cb\/\u516c\u53f8\u95dc\u4fc2\u6236"],"latitude":"25.01395042003244","longitude":"121.21131547607342","land_area_ping":2.36,"elevator":1,"parking_draw_lots_status":0,"is_special_trade":1}],"meta":{"total":844,"per_page":100,"current_page":1,"last_page":9,"from":1,"to":100}}