{"data":[{"transaction_area":"\u4e2d\u58e2\u5340","transaction_date":"108\/10","object_title":"\u65b0\u6f64A18","object_id":"L0bb107412ca779","address":"\u6625\u5fb7\u8def307\u865f\u56db\u6a13","floor":[4],"total_floor":15,"parking_type":["\u5761\u9053\u6a5f\u68b0"],"transaction_age":0,"total_price":571,"total_parking_price":100,"parking_amount":1,"unit_price_ping":34.23,"total_area_ping":18.94,"house_area_ping":13.76,"parking_area_ping":5.18,"public_area_ratio":34.75,"building_type":"\u4f4f\u5b85\u5927\u6a13","note":"","note_transform":[],"latitude":"25.01395042003244","longitude":"121.21131547607342","land_area_ping":2.36,"elevator":0,"parking_draw_lots_status":0,"is_special_trade":0},{"transaction_area":"\u4e2d\u58e2\u5340","transaction_date":"108\/10","object_title":"\u65b0\u6f64A18","object_id":"L0bb107412ca779","address":"\u6625\u5fb7\u8def273\u865f\u516b\u6a13","floor":[8],"total_floor":15,"parking_type":["\u5761\u9053\u5e73\u9762"],"transaction_age":0,"total_price":1188,"total_parking_price":150,"parking_amount":1,"unit_price_ping":29.66,"total_area_ping":45.33,"house_area_ping":35,"parking_area_ping":10.33,"public_area_ratio":34.81,"building_type":"\u4f4f\u5b85\u5927\u6a13","note":"","note_transform":[],"latitude":"25.01395042003244","longitude":"121.21131547607342","land_area_ping":5.69,"elevator":0,"parking_draw_lots_status":0,"is_special_trade":0},{"transaction_area":"\u4e2d\u58e2\u5340","transaction_date":"108\/10","object_title":"\u65b0\u6f64A18","object_id":"L0bb107412ca779","address":"\u6625\u5fb7\u8def265\u865f\u5341\u4e8c\u6a13","floor":[12],"total_floor":15,"parking_type":["\u5761\u9053\u5e73\u9762"],"transaction_age":0,"total_price":843,"total_parking_price":160,"parking_amount":1,"unit_price_ping":30.92,"total_area_ping":32.43,"house_area_ping":22.09,"parking_area_ping":10.33,"public_area_ratio":34.77,"building_type":"\u4f4f\u5b85\u5927\u6a13","note":"","note_transform":[],"latitude":"25.01395042003244","longitude":"121.21131547607342","land_area_ping":3.47,"elevator":0,"parking_draw_lots_status":0,"is_special_trade":0},{"transaction_area":"\u4e2d\u58e2\u5340","transaction_date":"108\/10","object_title":"\u65b0\u6f64A18","object_id":"L0bb107412ca779","address":"\u6625\u5fb7\u8def253\u865f\u5341\u4e09\u6a13","floor":[13],"total_floor":15,"parking_type":["\u5761\u9053\u5e73\u9762"],"transaction_age":0,"total_price":1190,"total_parking_price":155,"parking_amount":1,"unit_price_ping":29.7,"total_area_ping":45.19,"house_area_ping":34.85,"parking_area_ping":10.33,"public_area_ratio":34.86,"building_type":"\u4f4f\u5b85\u5927\u6a13","note":"","note_transform":[],"latitude":"25.01395042003244","longitude":"121.21131547607342","land_area_ping":5.69,"elevator":0,"parking_draw_lots_status":0,"is_special_trade":0},{"transaction_area":"\u4e2d\u58e2\u5340","transaction_date":"108\/10","object_title":"\u65b0\u6f64A18","object_id":"L0bb107412ca779","address":"\u6625\u5fb7\u8def261\u865f\u5341\u4e8c\u6a13","floor":[12],"total_floor":15,"parking_type":["\u5761\u9053\u5e73\u9762"],"transaction_age":0,"total_price":1158,"total_parking_price":165,"parking_amount":1,"unit_price_ping":29.52,"total_area_ping":43.97,"house_area_ping":33.64,"parking_area_ping":10.33,"public_area_ratio":34.86,"building_type":"\u4f4f\u5b85\u5927\u6a13","note":"","note_transform":[],"latitude":"25.01395042003244","longitude":"121.21131547607342","land_area_ping":5.41,"elevator":0,"parking_draw_lots_status":0,"is_special_trade":0},{"transaction_area":"\u4e2d\u58e2\u5340","transaction_date":"108\/10","object_title":"\u65b0\u6f64A18","object_id":"L0bb107412ca779","address":"\u6625\u5fb7\u8def261\u865f\u4e94\u6a13","floor":[5],"total_floor":15,"parking_type":["\u5761\u9053\u5e73\u9762"],"transaction_age":0,"total_price":1128,"total_parking_price":155,"parking_amount":1,"unit_price_ping":28.92,"total_area_ping":43.97,"house_area_ping":33.64,"parking_area_ping":10.33,"public_area_ratio":34.86,"building_type":"\u4f4f\u5b85\u5927\u6a13","note":"","note_transform":[],"latitude":"25.01395042003244","longitude":"121.21131547607342","land_area_ping":5.41,"elevator":0,"parking_draw_lots_status":0,"is_special_trade":0},{"transaction_area":"\u4e2d\u58e2\u5340","transaction_date":"108\/09","object_title":"\u65b0\u6f64A18","object_id":"L0bb107412ca779","address":"\u6625\u5fb7\u8def279\u865f\u5341\u6a13","floor":[10],"total_floor":15,"parking_type":["\u5761\u9053\u5e73\u9762"],"transaction_age":0,"total_price":628,"total_parking_price":155,"parking_amount":1,"unit_price_ping":31.51,"total_area_ping":25.34,"house_area_ping":15.01,"parking_area_ping":10.33,"public_area_ratio":34.86,"building_type":"\u4f4f\u5b85\u5927\u6a13","note":"","note_transform":[],"latitude":"25.01395042003244","longitude":"121.21131547607342","land_area_ping":2.64,"elevator":0,"parking_draw_lots_status":0,"is_special_trade":0},{"transaction_area":"\u4e2d\u58e2\u5340","transaction_date":"108\/09","object_title":"\u65b0\u6f64A18","object_id":"L0bb107412ca779","address":"\u6625\u5fb7\u8def285\u865f\u5341\u56db\u6a13","floor":[14],"total_floor":15,"parking_type":[""],"transaction_age":0,"total_price":488,"total_parking_price":0,"parking_amount":0,"unit_price_ping":32.51,"total_area_ping":15.01,"house_area_ping":15.01,"parking_area_ping":0,"public_area_ratio":34.87,"building_type":"\u4f4f\u5b85\u5927\u6a13","note":"","note_transform":[],"latitude":"25.01395042003244","longitude":"121.21131547607342","land_area_ping":2.5,"elevator":0,"parking_draw_lots_status":0,"is_special_trade":0},{"transaction_area":"\u4e2d\u58e2\u5340","transaction_date":"108\/09","object_title":"\u65b0\u6f64A18","object_id":"L0bb107412ca779","address":"\u6625\u5fb7\u8def277\u865f\u5341\u4e8c\u6a13","floor":[12],"total_floor":15,"parking_type":["\u5761\u9053\u6a5f\u68b0"],"transaction_age":0,"total_price":712,"total_parking_price":100,"parking_amount":1,"unit_price_ping":31.11,"total_area_ping":24.85,"house_area_ping":19.67,"parking_area_ping":5.18,"public_area_ratio":34.75,"building_type":"\u4f4f\u5b85\u5927\u6a13","note":"","note_transform":[],"latitude":"25.01395042003244","longitude":"121.21131547607342","land_area_ping":3.47,"elevator":0,"parking_draw_lots_status":0,"is_special_trade":0},{"transaction_area":"\u4e2d\u58e2\u5340","transaction_date":"108\/09","object_title":"\u65b0\u6f64A18","object_id":"L0bb107412ca779","address":"\u6625\u5fb7\u8def299\u865f\u4e09\u6a13","floor":[3],"total_floor":15,"parking_type":["\u5761\u9053\u6a5f\u68b0"],"transaction_age":0,"total_price":553,"total_parking_price":100,"parking_amount":1,"unit_price_ping":33.81,"total_area_ping":18.58,"house_area_ping":13.4,"parking_area_ping":5.18,"public_area_ratio":34.82,"building_type":"\u4f4f\u5b85\u5927\u6a13","note":"","note_transform":[],"latitude":"25.01395042003244","longitude":"121.21131547607342","land_area_ping":2.36,"elevator":0,"parking_draw_lots_status":0,"is_special_trade":0},{"transaction_area":"\u4e2d\u58e2\u5340","transaction_date":"108\/09","object_title":"\u65b0\u6f64A18","object_id":"L0bb107412ca779","address":"\u6625\u5fb7\u8def305\u865f\u5341\u6a13","floor":[10],"total_floor":15,"parking_type":["\u5761\u9053\u6a5f\u68b0"],"transaction_age":0,"total_price":539,"total_parking_price":100,"parking_amount":1,"unit_price_ping":32.81,"total_area_ping":18.55,"house_area_ping":13.38,"parking_area_ping":5.18,"public_area_ratio":34.85,"building_type":"\u4f4f\u5b85\u5927\u6a13","note":"","note_transform":[],"latitude":"25.01395042003244","longitude":"121.21131547607342","land_area_ping":2.36,"elevator":0,"parking_draw_lots_status":0,"is_special_trade":0},{"transaction_area":"\u4e2d\u58e2\u5340","transaction_date":"108\/09","object_title":"\u65b0\u6f64A18","object_id":"L0bb107412ca779","address":"\u6625\u5fb7\u8def299\u865f\u516b\u6a13","floor":[8],"total_floor":15,"parking_type":["\u5761\u9053\u6a5f\u68b0"],"transaction_age":0,"total_price":549,"total_parking_price":100,"parking_amount":1,"unit_price_ping":33.51,"total_area_ping":18.58,"house_area_ping":13.4,"parking_area_ping":5.18,"public_area_ratio":34.82,"building_type":"\u4f4f\u5b85\u5927\u6a13","note":"","note_transform":[],"latitude":"25.01395042003244","longitude":"121.21131547607342","land_area_ping":2.36,"elevator":0,"parking_draw_lots_status":0,"is_special_trade":0},{"transaction_area":"\u4e2d\u58e2\u5340","transaction_date":"108\/09","object_title":"\u65b0\u6f64A18","object_id":"L0bb107412ca779","address":"\u6625\u5fb7\u8def281\u865f10\u6a13","floor":[10],"total_floor":15,"parking_type":["\u5761\u9053\u5e73\u9762"],"transaction_age":0,"total_price":622,"total_parking_price":150,"parking_amount":1,"unit_price_ping":31.51,"total_area_ping":25.31,"house_area_ping":14.98,"parking_area_ping":10.33,"public_area_ratio":34.85,"building_type":"\u4f4f\u5b85\u5927\u6a13","note":"","note_transform":[],"latitude":"25.01395042003244","longitude":"121.21131547607342","land_area_ping":2.64,"elevator":0,"parking_draw_lots_status":0,"is_special_trade":0},{"transaction_area":"\u4e2d\u58e2\u5340","transaction_date":"108\/09","object_title":"\u65b0\u6f64A18","object_id":"L0bb107412ca779","address":"\u6625\u5fb7\u8def259\u865f\u516b\u6a13","floor":[8],"total_floor":15,"parking_type":["\u5761\u9053\u5e73\u9762"],"transaction_age":0,"total_price":955,"total_parking_price":150,"parking_amount":1,"unit_price_ping":31.66,"total_area_ping":35.76,"house_area_ping":25.43,"parking_area_ping":10.33,"public_area_ratio":34.78,"building_type":"\u4f4f\u5b85\u5927\u6a13","note":"","note_transform":[],"latitude":"25.01395042003244","longitude":"121.21131547607342","land_area_ping":4.02,"elevator":0,"parking_draw_lots_status":0,"is_special_trade":0},{"transaction_area":"\u4e2d\u58e2\u5340","transaction_date":"108\/09","object_title":"\u65b0\u6f64A18","object_id":"L0bb107412ca779","address":"\u6625\u5fb7\u8def265\u865f\u5341\u4e09\u6a13","floor":[13],"total_floor":15,"parking_type":["\u5761\u9053\u6a5f\u68b0"],"transaction_age":0,"total_price":794,"total_parking_price":80,"parking_amount":1,"unit_price_ping":32.32,"total_area_ping":27.27,"house_area_ping":22.09,"parking_area_ping":5.18,"public_area_ratio":34.77,"building_type":"\u4f4f\u5b85\u5927\u6a13","note":"","note_transform":[],"latitude":"25.01395042003244","longitude":"121.21131547607342","land_area_ping":3.47,"elevator":0,"parking_draw_lots_status":0,"is_special_trade":0},{"transaction_area":"\u4e2d\u58e2\u5340","transaction_date":"108\/09","object_title":"\u65b0\u6f64A18","object_id":"L0bb107412ca779","address":"\u6625\u5fb7\u8def277\u865f\u516b\u6a13","floor":[8],"total_floor":15,"parking_type":["\u5761\u9053\u6a5f\u68b0"],"transaction_age":0,"total_price":697,"total_parking_price":80,"parking_amount":1,"unit_price_ping":31.37,"total_area_ping":24.85,"house_area_ping":19.67,"parking_area_ping":5.18,"public_area_ratio":34.75,"building_type":"\u4f4f\u5b85\u5927\u6a13","note":"","note_transform":[],"latitude":"25.01395042003244","longitude":"121.21131547607342","land_area_ping":3.47,"elevator":0,"parking_draw_lots_status":0,"is_special_trade":0},{"transaction_area":"\u4e2d\u58e2\u5340","transaction_date":"108\/09","object_title":"\u65b0\u6f64A18","object_id":"L0bb107412ca779","address":"\u6625\u5fb7\u8def269\u865f6\u6a13","floor":[6],"total_floor":15,"parking_type":["\u5761\u9053\u6a5f\u68b0"],"transaction_age":0,"total_price":800,"total_parking_price":100,"parking_amount":1,"unit_price_ping":31.76,"total_area_ping":27.21,"house_area_ping":22.04,"parking_area_ping":5.18,"public_area_ratio":34.8,"building_type":"\u4f4f\u5b85\u5927\u6a13","note":"","note_transform":[],"latitude":"25.01395042003244","longitude":"121.21131547607342","land_area_ping":3.47,"elevator":0,"parking_draw_lots_status":0,"is_special_trade":0},{"transaction_area":"\u4e2d\u58e2\u5340","transaction_date":"108\/09","object_title":"\u65b0\u6f64A18","object_id":"L0bb107412ca779","address":"\u6625\u5fb7\u8def269\u865f\u5341\u4e00\u6a13","floor":[11],"total_floor":15,"parking_type":["\u5761\u9053\u6a5f\u68b0"],"transaction_age":0,"total_price":780,"total_parking_price":80,"parking_amount":1,"unit_price_ping":31.76,"total_area_ping":27.21,"house_area_ping":22.04,"parking_area_ping":5.18,"public_area_ratio":34.8,"building_type":"\u4f4f\u5b85\u5927\u6a13","note":"","note_transform":[],"latitude":"25.01395042003244","longitude":"121.21131547607342","land_area_ping":3.47,"elevator":0,"parking_draw_lots_status":0,"is_special_trade":0},{"transaction_area":"\u4e2d\u58e2\u5340","transaction_date":"108\/09","object_title":"\u65b0\u6f64A18","object_id":"L0bb107412ca779","address":"\u6625\u5fb7\u8def281\u865f\u4e09\u6a13","floor":[3],"total_floor":15,"parking_type":[""],"transaction_age":0,"total_price":484,"total_parking_price":0,"parking_amount":0,"unit_price_ping":32.31,"total_area_ping":14.98,"house_area_ping":14.98,"parking_area_ping":0,"public_area_ratio":34.85,"building_type":"\u4f4f\u5b85\u5927\u6a13","note":"","note_transform":[],"latitude":"25.01395042003244","longitude":"121.21131547607342","land_area_ping":2.5,"elevator":0,"parking_draw_lots_status":0,"is_special_trade":0},{"transaction_area":"\u4e2d\u58e2\u5340","transaction_date":"108\/09","object_title":"\u65b0\u6f64A18","object_id":"L0bb107412ca779","address":"\u6625\u5fb7\u8def281\u865f\u516b\u6a13","floor":[8],"total_floor":15,"parking_type":[""],"transaction_age":0,"total_price":490,"total_parking_price":0,"parking_amount":0,"unit_price_ping":32.71,"total_area_ping":14.98,"house_area_ping":14.98,"parking_area_ping":0,"public_area_ratio":34.85,"building_type":"\u4f4f\u5b85\u5927\u6a13","note":"","note_transform":[],"latitude":"25.01395042003244","longitude":"121.21131547607342","land_area_ping":2.5,"elevator":0,"parking_draw_lots_status":0,"is_special_trade":0}],"meta":{"total":844,"per_page":100,"current_page":7,"last_page":9,"from":601,"to":700}}