{"data":[{"transaction_area":"\u4e2d\u58e2\u5340","transaction_date":"111\/09","object_title":"\u65b0\u6f64A18","object_id":"L0bb107412ca779","address":"\u6625\u5fb7\u8def285\u865f\u5341\u4e94\u6a13","floor":[15],"total_floor":15,"parking_type":["\u5761\u9053\u6a5f\u68b0"],"transaction_age":2,"total_price":835,"total_parking_price":100,"parking_amount":1,"unit_price_ping":48.97,"total_area_ping":20.18,"house_area_ping":15.01,"parking_area_ping":5.18,"public_area_ratio":34.87,"building_type":"\u4f4f\u5b85\u5927\u6a13","note":"","note_transform":[],"latitude":"25.01395042003244","longitude":"121.21131547607342","land_area_ping":2.64,"elevator":1,"parking_draw_lots_status":0,"is_special_trade":0},{"transaction_area":"\u4e2d\u58e2\u5340","transaction_date":"111\/08","object_title":"\u65b0\u6f64A18","object_id":"L0bb107412ca779","address":"\u6625\u5fb7\u8def269\u865f\u4e03\u6a13","floor":[7],"total_floor":15,"parking_type":["\u5761\u9053\u5e73\u9762"],"transaction_age":2,"total_price":1300,"total_parking_price":160,"parking_amount":1,"unit_price_ping":51.72,"total_area_ping":32.37,"house_area_ping":22.04,"parking_area_ping":10.33,"public_area_ratio":34.8,"building_type":"\u4f4f\u5b85\u5927\u6a13","note":"","note_transform":[],"latitude":"25.01395042003244","longitude":"121.21131547607342","land_area_ping":3.47,"elevator":1,"parking_draw_lots_status":0,"is_special_trade":0},{"transaction_area":"\u4e2d\u58e2\u5340","transaction_date":"111\/07","object_title":"\u65b0\u6f64A18","object_id":"L0bb107412ca779","address":"\u6625\u5fb7\u8def257\u865f\u4e09\u6a13","floor":[3],"total_floor":15,"parking_type":["\u5761\u9053\u5e73\u9762"],"transaction_age":2,"total_price":1520,"total_parking_price":160,"parking_amount":1,"unit_price_ping":50.26,"total_area_ping":37.39,"house_area_ping":27.06,"parking_area_ping":10.33,"public_area_ratio":34.92,"building_type":"\u4f4f\u5b85\u5927\u6a13","note":"","note_transform":[],"latitude":"25.01395042003244","longitude":"121.21131547607342","land_area_ping":4.3,"elevator":1,"parking_draw_lots_status":0,"is_special_trade":0},{"transaction_area":"\u4e2d\u58e2\u5340","transaction_date":"111\/06","object_title":"\u65b0\u6f64A18","object_id":"L0bb107412ca779","address":"\u6625\u5fb7\u8def253\u865f\u56db\u6a13","floor":[4],"total_floor":15,"parking_type":["\u5761\u9053\u5e73\u9762"],"transaction_age":2,"total_price":1530,"total_parking_price":80,"parking_amount":1,"unit_price_ping":41.59,"total_area_ping":40.03,"house_area_ping":34.86,"parking_area_ping":5.17,"public_area_ratio":34.87,"building_type":"\u4f4f\u5b85\u5927\u6a13","note":"","note_transform":[],"latitude":"25.01395042003244","longitude":"121.21131547607342","land_area_ping":5.69,"elevator":1,"parking_draw_lots_status":0,"is_special_trade":0},{"transaction_area":"\u4e2d\u58e2\u5340","transaction_date":"111\/06","object_title":"\u65b0\u6f64A18","object_id":"L0bb107412ca779","address":"\u6625\u5fb7\u8def281\u865f\u4e09\u6a13","floor":[3],"total_floor":15,"parking_type":[""],"transaction_age":2,"total_price":700,"total_parking_price":0,"parking_amount":0,"unit_price_ping":46.73,"total_area_ping":14.98,"house_area_ping":14.98,"parking_area_ping":0,"public_area_ratio":34.85,"building_type":"\u4f4f\u5b85\u5927\u6a13","note":"","note_transform":[],"latitude":"25.01395042003244","longitude":"121.21131547607342","land_area_ping":2.5,"elevator":1,"parking_draw_lots_status":0,"is_special_trade":0},{"transaction_area":"\u4e2d\u58e2\u5340","transaction_date":"111\/04","object_title":"\u65b0\u6f64A18","object_id":"L0bb107412ca779","address":"\u6625\u5fb7\u8def307\u865f\u5341\u4e09\u6a13","floor":[13],"total_floor":15,"parking_type":["\u5761\u9053\u6a5f\u68b0"],"transaction_age":2,"total_price":790,"total_parking_price":80,"parking_amount":1,"unit_price_ping":51.56,"total_area_ping":18.94,"house_area_ping":13.77,"parking_area_ping":5.17,"public_area_ratio":34.76,"building_type":"\u4f4f\u5b85\u5927\u6a13","note":"","note_transform":[],"latitude":"25.01395042003244","longitude":"121.21131547607342","land_area_ping":2.36,"elevator":1,"parking_draw_lots_status":0,"is_special_trade":0},{"transaction_area":"\u4e2d\u58e2\u5340","transaction_date":"111\/04","object_title":"\u65b0\u6f64A18","object_id":"L0bb107412ca779","address":"\u6625\u5fb7\u8def293\u865f\u5341\u4e94\u6a13","floor":[15],"total_floor":15,"parking_type":["\u5761\u9053\u5e73\u9762"],"transaction_age":2,"total_price":1150,"total_parking_price":155,"parking_amount":1,"unit_price_ping":34.22,"total_area_ping":39.41,"house_area_ping":29.08,"parking_area_ping":10.33,"public_area_ratio":34.7,"building_type":"\u4f4f\u5b85\u5927\u6a13","note":"","note_transform":[],"latitude":"25.01395042003244","longitude":"121.21131547607342","land_area_ping":4.58,"elevator":1,"parking_draw_lots_status":0,"is_special_trade":0},{"transaction_area":"\u4e2d\u58e2\u5340","transaction_date":"111\/03","object_title":"\u65b0\u6f64A18","object_id":"L0bb107412ca779","address":"\u6625\u5fb7\u8def265\u865f\u5341\u4e94\u6a13","floor":[15],"total_floor":15,"parking_type":["\u5761\u9053\u6a5f\u68b0"],"transaction_age":2,"total_price":1099,"total_parking_price":80,"parking_amount":1,"unit_price_ping":46.11,"total_area_ping":27.27,"house_area_ping":22.09,"parking_area_ping":5.18,"public_area_ratio":34.77,"building_type":"\u4f4f\u5b85\u5927\u6a13","note":"","note_transform":[],"latitude":"25.01395042003244","longitude":"121.21131547607342","land_area_ping":3.47,"elevator":1,"parking_draw_lots_status":0,"is_special_trade":0},{"transaction_area":"\u4e2d\u58e2\u5340","transaction_date":"111\/03","object_title":"\u65b0\u6f64A18","object_id":"L0bb107412ca779","address":"\u6625\u5fb7\u8def295\u865f\u516d\u6a13","floor":[6],"total_floor":15,"parking_type":["\u5761\u9053\u6a5f\u68b0"],"transaction_age":2,"total_price":758,"total_parking_price":80,"parking_amount":1,"unit_price_ping":50.98,"total_area_ping":18.47,"house_area_ping":13.3,"parking_area_ping":5.18,"public_area_ratio":34.8,"building_type":"\u4f4f\u5b85\u5927\u6a13","note":"","note_transform":[],"latitude":"25.01395042003244","longitude":"121.21131547607342","land_area_ping":2.36,"elevator":1,"parking_draw_lots_status":0,"is_special_trade":0},{"transaction_area":"\u4e2d\u58e2\u5340","transaction_date":"111\/03","object_title":"\u65b0\u6f64A18","object_id":"L0bb107412ca779","address":"\u6625\u5fb7\u8def279\u865f\u5341\u6a13","floor":[10],"total_floor":15,"parking_type":["\u5761\u9053\u5e73\u9762"],"transaction_age":2,"total_price":892,"total_parking_price":155,"parking_amount":1,"unit_price_ping":49.1,"total_area_ping":25.34,"house_area_ping":15.01,"parking_area_ping":10.34,"public_area_ratio":34.85,"building_type":"\u4f4f\u5b85\u5927\u6a13","note":"","note_transform":[],"latitude":"25.01395042003244","longitude":"121.21131547607342","land_area_ping":2.64,"elevator":1,"parking_draw_lots_status":0,"is_special_trade":0},{"transaction_area":"\u4e2d\u58e2\u5340","transaction_date":"111\/02","object_title":"\u65b0\u6f64A18","object_id":"L0bb107412ca779","address":"\u6625\u5fb7\u8def283\u865f\u5341\u56db\u6a13","floor":[14],"total_floor":15,"parking_type":["\u5761\u9053\u6a5f\u68b0"],"transaction_age":2,"total_price":740,"total_parking_price":80,"parking_amount":1,"unit_price_ping":44.3,"total_area_ping":20.08,"house_area_ping":14.9,"parking_area_ping":5.17,"public_area_ratio":34.83,"building_type":"\u4f4f\u5b85\u5927\u6a13","note":"\u6a5f\u8eca\u4f4d\u58f9\u4f4d2\u5e741\u62bd\u3002","note_transform":[],"latitude":"25.01395042003244","longitude":"121.21131547607342","land_area_ping":2.64,"elevator":1,"parking_draw_lots_status":0,"is_special_trade":0},{"transaction_area":"\u4e2d\u58e2\u5340","transaction_date":"111\/01","object_title":"\u65b0\u6f64A18","object_id":"L0bb107412ca779","address":"\u6625\u5fb7\u8def275\u865f\u5341\u4e94\u6a13","floor":[15],"total_floor":15,"parking_type":["\u5761\u9053\u5e73\u9762"],"transaction_age":2,"total_price":1320,"total_parking_price":160,"parking_amount":1,"unit_price_ping":44.16,"total_area_ping":36.6,"house_area_ping":26.27,"parking_area_ping":10.33,"public_area_ratio":34.84,"building_type":"\u4f4f\u5b85\u5927\u6a13","note":"","note_transform":[],"latitude":"25.01395042003244","longitude":"121.21131547607342","land_area_ping":4.3,"elevator":1,"parking_draw_lots_status":0,"is_special_trade":0},{"transaction_area":"\u4e2d\u58e2\u5340","transaction_date":"110\/11","object_title":"\u65b0\u6f64A18","object_id":"L0bb107412ca779","address":"\u6625\u5fb7\u8def259\u865f\u56db\u6a13","floor":[4],"total_floor":15,"parking_type":["\u5761\u9053\u5e73\u9762"],"transaction_age":2,"total_price":1398,"total_parking_price":155,"parking_amount":1,"unit_price_ping":48.88,"total_area_ping":36.49,"house_area_ping":25.43,"parking_area_ping":11.07,"public_area_ratio":34.78,"building_type":"\u4f4f\u5b85\u5927\u6a13","note":"","note_transform":[],"latitude":"25.01395042003244","longitude":"121.21131547607342","land_area_ping":4.02,"elevator":1,"parking_draw_lots_status":0,"is_special_trade":0},{"transaction_area":"\u4e2d\u58e2\u5340","transaction_date":"110\/11","object_title":"\u65b0\u6f64A18","object_id":"L0bb107412ca779","address":"\u6625\u5fb7\u8def307\u865f\u4e09\u6a13","floor":[3],"total_floor":15,"parking_type":["\u5761\u9053\u6a5f\u68b0"],"transaction_age":1,"total_price":775,"total_parking_price":80,"parking_amount":1,"unit_price_ping":50.47,"total_area_ping":18.94,"house_area_ping":13.77,"parking_area_ping":5.17,"public_area_ratio":34.76,"building_type":"\u4f4f\u5b85\u5927\u6a13","note":"","note_transform":[],"latitude":"25.01395042003244","longitude":"121.21131547607342","land_area_ping":2.36,"elevator":1,"parking_draw_lots_status":0,"is_special_trade":0},{"transaction_area":"\u4e2d\u58e2\u5340","transaction_date":"110\/11","object_title":"\u65b0\u6f64A18","object_id":"L0bb107412ca779","address":"\u6625\u5fb7\u8def261\u865f\u56db\u6a13","floor":[4],"total_floor":15,"parking_type":["\u5761\u9053\u6a5f\u68b0"],"transaction_age":1,"total_price":1470,"total_parking_price":80,"parking_amount":1,"unit_price_ping":41.32,"total_area_ping":38.81,"house_area_ping":33.64,"parking_area_ping":5.18,"public_area_ratio":34.86,"building_type":"\u4f4f\u5b85\u5927\u6a13","note":"","note_transform":[],"latitude":"25.01395042003244","longitude":"121.21131547607342","land_area_ping":5.41,"elevator":1,"parking_draw_lots_status":0,"is_special_trade":0},{"transaction_area":"\u4e2d\u58e2\u5340","transaction_date":"110\/09","object_title":"\u65b0\u6f64A18","object_id":"L0bb107412ca779","address":"\u6625\u5fb7\u8def267\u865f\u56db\u6a13","floor":[4],"total_floor":15,"parking_type":["\u5761\u9053\u6a5f\u68b0"],"transaction_age":1,"total_price":850,"total_parking_price":100,"parking_amount":1,"unit_price_ping":34.04,"total_area_ping":27.21,"house_area_ping":22.03,"parking_area_ping":5.18,"public_area_ratio":34.81,"building_type":"\u4f4f\u5b85\u5927\u6a13","note":"","note_transform":[],"latitude":"25.01395042003244","longitude":"121.21131547607342","land_area_ping":3.47,"elevator":1,"parking_draw_lots_status":0,"is_special_trade":0},{"transaction_area":"\u4e2d\u58e2\u5340","transaction_date":"110\/08","object_title":"\u65b0\u6f64A18","object_id":"L0bb107412ca779","address":"\u6625\u5fb7\u8def299\u865f\u4e09\u6a13","floor":[3],"total_floor":15,"parking_type":["\u5761\u9053\u5e73\u9762"],"transaction_age":1,"total_price":663,"total_parking_price":100,"parking_amount":1,"unit_price_ping":42.01,"total_area_ping":18.58,"house_area_ping":13.4,"parking_area_ping":5.18,"public_area_ratio":34.82,"building_type":"\u4f4f\u5b85\u5927\u6a13","note":"","note_transform":[],"latitude":"25.01395042003244","longitude":"121.21131547607342","land_area_ping":2.36,"elevator":1,"parking_draw_lots_status":0,"is_special_trade":0},{"transaction_area":"\u4e2d\u58e2\u5340","transaction_date":"110\/07","object_title":"\u65b0\u6f64A18","object_id":"L0bb107412ca779","address":"\u6625\u5fb7\u8def293\u865f\u5341\u4e94\u6a13","floor":[15],"total_floor":15,"parking_type":["\u5761\u9053\u5e73\u9762"],"transaction_age":1,"total_price":1120,"total_parking_price":160,"parking_amount":1,"unit_price_ping":33.01,"total_area_ping":39.41,"house_area_ping":29.08,"parking_area_ping":10.33,"public_area_ratio":34.7,"building_type":"\u4f4f\u5b85\u5927\u6a13","note":"","note_transform":[],"latitude":"25.01395042003244","longitude":"121.21131547607342","land_area_ping":4.58,"elevator":1,"parking_draw_lots_status":0,"is_special_trade":0},{"transaction_area":"\u4e2d\u58e2\u5340","transaction_date":"110\/06","object_title":"\u65b0\u6f64A18","object_id":"L0bb107412ca779","address":"\u6625\u5fb7\u8def301\u865f\u5341\u4e94\u6a13","floor":[15],"total_floor":15,"parking_type":["\u5761\u9053\u6a5f\u68b0"],"transaction_age":1,"total_price":820,"total_parking_price":100,"parking_amount":1,"unit_price_ping":54.09,"total_area_ping":18.48,"house_area_ping":13.31,"parking_area_ping":5.18,"public_area_ratio":34.83,"building_type":"\u4f4f\u5b85\u5927\u6a13","note":"","note_transform":[],"latitude":"25.01395042003244","longitude":"121.21131547607342","land_area_ping":2.36,"elevator":1,"parking_draw_lots_status":0,"is_special_trade":0},{"transaction_area":"\u4e2d\u58e2\u5340","transaction_date":"110\/06","object_title":"\u65b0\u6f64A18","object_id":"L0bb107412ca779","address":"\u6625\u5fb7\u8def297\u865f\u5341\u4e94\u6a13","floor":[15],"total_floor":15,"parking_type":["\u5761\u9053\u6a5f\u68b0"],"transaction_age":1,"total_price":760,"total_parking_price":100,"parking_amount":1,"unit_price_ping":49.4,"total_area_ping":18.53,"house_area_ping":13.36,"parking_area_ping":5.18,"public_area_ratio":34.85,"building_type":"\u4f4f\u5b85\u5927\u6a13","note":"","note_transform":[],"latitude":"25.01395042003244","longitude":"121.21131547607342","land_area_ping":2.36,"elevator":1,"parking_draw_lots_status":0,"is_special_trade":0}],"meta":{"total":844,"per_page":100,"current_page":4,"last_page":9,"from":301,"to":400}}