{"data":[{"transaction_area":"\u4e2d\u58e2\u5340","transaction_date":"109\/06","object_title":"\u65b0\u6f64A18","object_id":"L0bb107412ca779","address":"\u6625\u5fb7\u8def281\u865f\u5341\u6a13","floor":[10],"total_floor":15,"parking_type":["\u5761\u9053\u5e73\u9762"],"transaction_age":0,"total_price":650,"total_parking_price":150,"parking_amount":1,"unit_price_ping":33.38,"total_area_ping":25.31,"house_area_ping":14.98,"parking_area_ping":10.33,"public_area_ratio":34.85,"building_type":"\u4f4f\u5b85\u5927\u6a13","note":"","note_transform":[],"latitude":"25.01395042003244","longitude":"121.21131547607342","land_area_ping":2.64,"elevator":1,"parking_draw_lots_status":0,"is_special_trade":0},{"transaction_area":"\u4e2d\u58e2\u5340","transaction_date":"109\/06","object_title":"\u65b0\u6f64A18","object_id":"L0bb107412ca779","address":"\u6625\u5fb7\u8def297\u865f\u516b\u6a13","floor":[8],"total_floor":15,"parking_type":["\u5761\u9053\u5e73\u9762"],"transaction_age":0,"total_price":585,"total_parking_price":100,"parking_amount":1,"unit_price_ping":36.3,"total_area_ping":18.53,"house_area_ping":13.36,"parking_area_ping":5.18,"public_area_ratio":34.85,"building_type":"\u4f4f\u5b85\u5927\u6a13","note":"","note_transform":[],"latitude":"25.01395042003244","longitude":"121.21131547607342","land_area_ping":2.36,"elevator":1,"parking_draw_lots_status":0,"is_special_trade":0},{"transaction_area":"\u4e2d\u58e2\u5340","transaction_date":"109\/06","object_title":"\u65b0\u6f64A18","object_id":"L0bb107412ca779","address":"\u6625\u5fb7\u8def259\u865f\u4e5d\u6a13","floor":[9],"total_floor":15,"parking_type":["\u5761\u9053\u5e73\u9762"],"transaction_age":0,"total_price":1110,"total_parking_price":150,"parking_amount":1,"unit_price_ping":37.75,"total_area_ping":35.76,"house_area_ping":25.43,"parking_area_ping":10.33,"public_area_ratio":34.78,"building_type":"\u4f4f\u5b85\u5927\u6a13","note":"\u542b\u571f\u5730\u589e\u503c\u7a05\u6216\u5176\u4ed6\u7a05\u8cbb;","note_transform":["\u7a05\u8cbb\u7531\u8cb7\u65b9\u8ca0\u64d4"],"latitude":"25.01395042003244","longitude":"121.21131547607342","land_area_ping":4.02,"elevator":1,"parking_draw_lots_status":0,"is_special_trade":0},{"transaction_area":"\u4e2d\u58e2\u5340","transaction_date":"109\/06","object_title":"\u65b0\u6f64A18","object_id":"L0bb107412ca779","address":"\u6625\u5fb7\u8def263\u865f\u516b\u6a13","floor":[8],"total_floor":15,"parking_type":["\u5761\u9053\u6a5f\u68b0"],"transaction_age":0,"total_price":1040,"total_parking_price":100,"parking_amount":1,"unit_price_ping":34.81,"total_area_ping":32.18,"house_area_ping":27,"parking_area_ping":5.18,"public_area_ratio":34.8,"building_type":"\u4f4f\u5b85\u5927\u6a13","note":"\u542b\u4ef2\u4ecb\u8cbb;\u5730\u653f\u58eb\u670d\u52d9\u8cbb;","note_transform":["\u7a05\u8cbb\u7531\u8cb7\u65b9\u8ca0\u64d4"],"latitude":"25.01395042003244","longitude":"121.21131547607342","land_area_ping":4.02,"elevator":1,"parking_draw_lots_status":0,"is_special_trade":0},{"transaction_area":"\u4e2d\u58e2\u5340","transaction_date":"109\/04","object_title":"\u65b0\u6f64A18","object_id":"L0bb107412ca779","address":"\u6625\u5fb7\u8def287\u865f14\u6a13","floor":[14],"total_floor":15,"parking_type":[""],"transaction_age":0,"total_price":487,"total_parking_price":0,"parking_amount":0,"unit_price_ping":32.49,"total_area_ping":14.99,"house_area_ping":14.99,"parking_area_ping":0,"public_area_ratio":34.83,"building_type":"\u4f4f\u5b85\u5927\u6a13","note":"","note_transform":[],"latitude":"25.01395042003244","longitude":"121.21131547607342","land_area_ping":2.5,"elevator":0,"parking_draw_lots_status":0,"is_special_trade":0},{"transaction_area":"\u4e2d\u58e2\u5340","transaction_date":"109\/04","object_title":"\u65b0\u6f64A18","object_id":"L0bb107412ca779","address":"\u6625\u5fb7\u8def279\u865f\u5341\u4e00\u6a13","floor":[11],"total_floor":15,"parking_type":["\u5761\u9053\u5e73\u9762"],"transaction_age":0,"total_price":615,"total_parking_price":145,"parking_amount":1,"unit_price_ping":31.31,"total_area_ping":23.63,"house_area_ping":15.01,"parking_area_ping":8.62,"public_area_ratio":34.86,"building_type":"\u4f4f\u5b85\u5927\u6a13","note":"","note_transform":[],"latitude":"25.01395042003244","longitude":"121.21131547607342","land_area_ping":2.64,"elevator":0,"parking_draw_lots_status":0,"is_special_trade":0},{"transaction_area":"\u4e2d\u58e2\u5340","transaction_date":"109\/04","object_title":"\u65b0\u6f64A18","object_id":"L0bb107412ca779","address":"\u6625\u5fb7\u8def289\u865f\u5341\u56db\u6a13","floor":[14],"total_floor":15,"parking_type":["\u5761\u9053\u6a5f\u68b0"],"transaction_age":0,"total_price":820,"total_parking_price":100,"parking_amount":1,"unit_price_ping":38.42,"total_area_ping":23.91,"house_area_ping":18.74,"parking_area_ping":5.17,"public_area_ratio":34.77,"building_type":"\u4f4f\u5b85\u5927\u6a13","note":"","note_transform":[],"latitude":"25.01395042003244","longitude":"121.21131547607342","land_area_ping":3.33,"elevator":0,"parking_draw_lots_status":0,"is_special_trade":0},{"transaction_area":"\u4e2d\u58e2\u5340","transaction_date":"109\/03","object_title":"\u65b0\u6f64A18","object_id":"L0bb107412ca779","address":"\u6625\u5fb7\u8def283\u865f\u56db\u6a13","floor":[4],"total_floor":15,"parking_type":["\u5761\u9053\u6a5f\u68b0"],"transaction_age":0,"total_price":668,"total_parking_price":100,"parking_amount":1,"unit_price_ping":38.12,"total_area_ping":20.08,"house_area_ping":14.9,"parking_area_ping":5.18,"public_area_ratio":34.82,"building_type":"\u4f4f\u5b85\u5927\u6a13","note":"","note_transform":[],"latitude":"25.01395042003244","longitude":"121.21131547607342","land_area_ping":2.64,"elevator":0,"parking_draw_lots_status":0,"is_special_trade":0},{"transaction_area":"\u4e2d\u58e2\u5340","transaction_date":"109\/03","object_title":"\u65b0\u6f64A18","object_id":"L0bb107412ca779","address":"\u6625\u5fb7\u8def285\u865f\u4e8c\u6a13","floor":[2],"total_floor":15,"parking_type":["\u5761\u9053\u6a5f\u68b0"],"transaction_age":0,"total_price":553,"total_parking_price":80,"parking_amount":1,"unit_price_ping":31.51,"total_area_ping":20.18,"house_area_ping":15.01,"parking_area_ping":5.17,"public_area_ratio":34.89,"building_type":"\u4f4f\u5b85\u5927\u6a13","note":"","note_transform":[],"latitude":"25.01395042003244","longitude":"121.21131547607342","land_area_ping":2.64,"elevator":0,"parking_draw_lots_status":0,"is_special_trade":0},{"transaction_area":"\u4e2d\u58e2\u5340","transaction_date":"109\/02","object_title":"\u65b0\u6f64A18","object_id":"L0bb107412ca779","address":"\u6625\u5fb7\u8def285\u865f\u5341\u4e94\u6a13","floor":[15],"total_floor":15,"parking_type":["\u5761\u9053\u6a5f\u68b0"],"transaction_age":0,"total_price":576,"total_parking_price":100,"parking_amount":1,"unit_price_ping":31.71,"total_area_ping":20.18,"house_area_ping":15.01,"parking_area_ping":5.17,"public_area_ratio":34.89,"building_type":"\u4f4f\u5b85\u5927\u6a13","note":"","note_transform":[],"latitude":"25.01395042003244","longitude":"121.21131547607342","land_area_ping":2.64,"elevator":0,"parking_draw_lots_status":0,"is_special_trade":0},{"transaction_area":"\u4e2d\u58e2\u5340","transaction_date":"109\/02","object_title":"\u65b0\u6f64A18","object_id":"L0bb107412ca779","address":"\u6625\u5fb7\u8def307\u865f\u4e5d\u6a13","floor":[9],"total_floor":15,"parking_type":["\u5761\u9053\u6a5f\u68b0"],"transaction_age":0,"total_price":533,"total_parking_price":100,"parking_amount":1,"unit_price_ping":31.47,"total_area_ping":18.94,"house_area_ping":13.76,"parking_area_ping":5.18,"public_area_ratio":34.75,"building_type":"\u4f4f\u5b85\u5927\u6a13","note":"","note_transform":[],"latitude":"25.01395042003244","longitude":"121.21131547607342","land_area_ping":2.36,"elevator":0,"parking_draw_lots_status":0,"is_special_trade":0},{"transaction_area":"\u4e2d\u58e2\u5340","transaction_date":"109\/02","object_title":"\u65b0\u6f64A18","object_id":"L0bb107412ca779","address":"\u6625\u5fb7\u8def265\u865f\u5341\u4e94\u6a13","floor":[15],"total_floor":15,"parking_type":["\u5761\u9053\u6a5f\u68b0"],"transaction_age":0,"total_price":808,"total_parking_price":100,"parking_amount":1,"unit_price_ping":32.05,"total_area_ping":27.27,"house_area_ping":22.09,"parking_area_ping":5.18,"public_area_ratio":34.77,"building_type":"\u4f4f\u5b85\u5927\u6a13","note":"","note_transform":[],"latitude":"25.01395042003244","longitude":"121.21131547607342","land_area_ping":3.47,"elevator":0,"parking_draw_lots_status":0,"is_special_trade":0},{"transaction_area":"\u4e2d\u58e2\u5340","transaction_date":"109\/02","object_title":"\u65b0\u6f64A18","object_id":"L0bb107412ca779","address":"\u6625\u5fb7\u8def283\u865f\u516d\u6a13","floor":[6],"total_floor":15,"parking_type":["\u5761\u9053\u6a5f\u68b0"],"transaction_age":0,"total_price":575,"total_parking_price":80,"parking_amount":1,"unit_price_ping":33.22,"total_area_ping":20.08,"house_area_ping":14.9,"parking_area_ping":5.17,"public_area_ratio":34.83,"building_type":"\u4f4f\u5b85\u5927\u6a13","note":"","note_transform":[],"latitude":"25.01395042003244","longitude":"121.21131547607342","land_area_ping":2.64,"elevator":0,"parking_draw_lots_status":0,"is_special_trade":0},{"transaction_area":"\u4e2d\u58e2\u5340","transaction_date":"109\/01","object_title":"\u65b0\u6f64A18","object_id":"L0bb107412ca779","address":"\u6625\u5fb7\u8def279\u865f4\u6a13","floor":[4],"total_floor":15,"parking_type":[""],"transaction_age":0,"total_price":482,"total_parking_price":0,"parking_amount":0,"unit_price_ping":32.11,"total_area_ping":15.01,"house_area_ping":15.01,"parking_area_ping":0,"public_area_ratio":34.86,"building_type":"\u4f4f\u5b85\u5927\u6a13","note":"","note_transform":[],"latitude":"25.01395042003244","longitude":"121.21131547607342","land_area_ping":2.5,"elevator":0,"parking_draw_lots_status":0,"is_special_trade":0},{"transaction_area":"\u4e2d\u58e2\u5340","transaction_date":"108\/12","object_title":"\u65b0\u6f64A18","object_id":"L0bb107412ca779","address":"\u6625\u5fb7\u8def289\u865f\u5341\u4e09\u6a13","floor":[13],"total_floor":15,"parking_type":["\u5761\u9053\u6a5f\u68b0"],"transaction_age":0,"total_price":690,"total_parking_price":100,"parking_amount":1,"unit_price_ping":31.48,"total_area_ping":23.91,"house_area_ping":18.74,"parking_area_ping":5.18,"public_area_ratio":34.76,"building_type":"\u4f4f\u5b85\u5927\u6a13","note":"","note_transform":[],"latitude":"25.01395042003244","longitude":"121.21131547607342","land_area_ping":3.33,"elevator":0,"parking_draw_lots_status":0,"is_special_trade":0},{"transaction_area":"\u4e2d\u58e2\u5340","transaction_date":"108\/12","object_title":"\u65b0\u6f64A18","object_id":"L0bb107412ca779","address":"\u6625\u5fb7\u8def269\u865f\u5341\u4e09\u6a13","floor":[13],"total_floor":15,"parking_type":["\u5761\u9053\u5e73\u9762"],"transaction_age":0,"total_price":850,"total_parking_price":160,"parking_amount":1,"unit_price_ping":31.31,"total_area_ping":32.37,"house_area_ping":22.04,"parking_area_ping":10.33,"public_area_ratio":34.8,"building_type":"\u4f4f\u5b85\u5927\u6a13","note":"","note_transform":[],"latitude":"25.01395042003244","longitude":"121.21131547607342","land_area_ping":3.47,"elevator":0,"parking_draw_lots_status":0,"is_special_trade":0},{"transaction_area":"\u4e2d\u58e2\u5340","transaction_date":"108\/12","object_title":"\u65b0\u6f64A18","object_id":"L0bb107412ca779","address":"\u6625\u5fb7\u8def283\u865f12\u6a13","floor":[12],"total_floor":15,"parking_type":["\u5761\u9053\u5e73\u9762"],"transaction_age":0,"total_price":617,"total_parking_price":155,"parking_amount":1,"unit_price_ping":31.01,"total_area_ping":25.24,"house_area_ping":14.9,"parking_area_ping":10.33,"public_area_ratio":34.82,"building_type":"\u4f4f\u5b85\u5927\u6a13","note":"","note_transform":[],"latitude":"25.01395042003244","longitude":"121.21131547607342","land_area_ping":2.64,"elevator":0,"parking_draw_lots_status":0,"is_special_trade":0},{"transaction_area":"\u4e2d\u58e2\u5340","transaction_date":"108\/11","object_title":"\u65b0\u6f64A18","object_id":"L0bb107412ca779","address":"\u6625\u5fb7\u8def283\u865f\u516b\u6a13","floor":[8],"total_floor":15,"parking_type":["\u5761\u9053\u6a5f\u68b0"],"transaction_age":0,"total_price":578,"total_parking_price":100,"parking_amount":1,"unit_price_ping":32.08,"total_area_ping":20.08,"house_area_ping":14.9,"parking_area_ping":5.18,"public_area_ratio":34.82,"building_type":"\u4f4f\u5b85\u5927\u6a13","note":"","note_transform":[],"latitude":"25.01395042003244","longitude":"121.21131547607342","land_area_ping":2.64,"elevator":0,"parking_draw_lots_status":0,"is_special_trade":0},{"transaction_area":"\u4e2d\u58e2\u5340","transaction_date":"108\/11","object_title":"\u65b0\u6f64A18","object_id":"L0bb107412ca779","address":"\u6625\u5fb7\u8def257\u865f15\u6a13","floor":[15],"total_floor":15,"parking_type":["\u5761\u9053\u5e73\u9762"],"transaction_age":0,"total_price":1135,"total_parking_price":300,"parking_amount":2,"unit_price_ping":30.86,"total_area_ping":47.72,"house_area_ping":27.06,"parking_area_ping":20.67,"public_area_ratio":34.92,"building_type":"\u4f4f\u5b85\u5927\u6a13","note":"","note_transform":[],"latitude":"25.01395042003244","longitude":"121.21131547607342","land_area_ping":4.44,"elevator":0,"parking_draw_lots_status":0,"is_special_trade":0},{"transaction_area":"\u4e2d\u58e2\u5340","transaction_date":"108\/10","object_title":"\u65b0\u6f64A18","object_id":"L0bb107412ca779","address":"\u6625\u5fb7\u8def267\u865f\u56db\u6a13","floor":[4],"total_floor":15,"parking_type":["\u5761\u9053\u6a5f\u68b0"],"transaction_age":0,"total_price":785,"total_parking_price":100,"parking_amount":1,"unit_price_ping":31.09,"total_area_ping":27.21,"house_area_ping":22.03,"parking_area_ping":5.18,"public_area_ratio":34.81,"building_type":"\u4f4f\u5b85\u5927\u6a13","note":"","note_transform":[],"latitude":"25.01395042003244","longitude":"121.21131547607342","land_area_ping":3.47,"elevator":0,"parking_draw_lots_status":0,"is_special_trade":0}],"meta":{"total":844,"per_page":100,"current_page":6,"last_page":9,"from":501,"to":600}}