{"data":[{"transaction_area":"\u4e2d\u58e2\u5340","transaction_date":"108\/09","object_title":"\u65b0\u6f64A18","object_id":"L0bb107412ca779","address":"\u6625\u5fb7\u8def291\u865f\u516d\u6a13","floor":[6],"total_floor":15,"parking_type":["\u5761\u9053\u5e73\u9762"],"transaction_age":0,"total_price":980,"total_parking_price":160,"parking_amount":1,"unit_price_ping":31.1,"total_area_ping":36.7,"house_area_ping":26.37,"parking_area_ping":10.33,"public_area_ratio":34.84,"building_type":"\u4f4f\u5b85\u5927\u6a13","note":"","note_transform":[],"latitude":"25.01395042003244","longitude":"121.21131547607342","land_area_ping":4.3,"elevator":0,"parking_draw_lots_status":0,"is_special_trade":0},{"transaction_area":"\u4e2d\u58e2\u5340","transaction_date":"108\/09","object_title":"\u65b0\u6f64A18","object_id":"L0bb107412ca779","address":"A10-5F","floor":[5],"total_floor":15,"parking_type":["\u5761\u9053\u5e73\u9762"],"transaction_age":-1,"total_price":1035,"total_parking_price":165,"parking_amount":0,"unit_price_ping":32.95,"total_area_ping":36.71,"house_area_ping":26.4,"parking_area_ping":10.32,"public_area_ratio":0,"building_type":"\u4f4f\u5b85\u5927\u6a13","note":"","note_transform":[],"latitude":"25.01395042003244","longitude":"121.21131547607342","land_area_ping":0,"elevator":0,"parking_draw_lots_status":0,"is_special_trade":0},{"transaction_area":"\u4e2d\u58e2\u5340","transaction_date":"108\/09","object_title":"\u65b0\u6f64A18","object_id":"L0bb107412ca779","address":"\u6625\u5fb7\u8def293\u865f\u4e8c\u6a13","floor":[2],"total_floor":15,"parking_type":["\u5761\u9053\u5e73\u9762"],"transaction_age":0,"total_price":1038,"total_parking_price":160,"parking_amount":1,"unit_price_ping":31.12,"total_area_ping":38.55,"house_area_ping":28.21,"parking_area_ping":10.33,"public_area_ratio":34.81,"building_type":"\u4f4f\u5b85\u5927\u6a13","note":"","note_transform":[],"latitude":"25.01395042003244","longitude":"121.21131547607342","land_area_ping":4.58,"elevator":0,"parking_draw_lots_status":0,"is_special_trade":0},{"transaction_area":"\u4e2d\u58e2\u5340","transaction_date":"108\/09","object_title":"\u65b0\u6f64A18","object_id":"L0bb107412ca779","address":"\u6625\u5fb7\u8def275\u865f\u4e09\u6a13","floor":[3],"total_floor":15,"parking_type":["\u5761\u9053\u6a5f\u68b0"],"transaction_age":0,"total_price":898,"total_parking_price":80,"parking_amount":1,"unit_price_ping":31.1,"total_area_ping":31.48,"house_area_ping":26.3,"parking_area_ping":5.18,"public_area_ratio":34.92,"building_type":"\u4f4f\u5b85\u5927\u6a13","note":"","note_transform":[],"latitude":"25.01395042003244","longitude":"121.21131547607342","land_area_ping":4.3,"elevator":0,"parking_draw_lots_status":0,"is_special_trade":0},{"transaction_area":"\u4e2d\u58e2\u5340","transaction_date":"108\/09","object_title":"\u65b0\u6f64A18","object_id":"L0bb107412ca779","address":"\u6625\u5fb7\u8def291\u865f5\u6a13","floor":[5],"total_floor":15,"parking_type":["\u5761\u9053\u5e73\u9762"],"transaction_age":0,"total_price":980,"total_parking_price":155,"parking_amount":1,"unit_price_ping":31.29,"total_area_ping":36.7,"house_area_ping":26.37,"parking_area_ping":10.33,"public_area_ratio":34.84,"building_type":"\u4f4f\u5b85\u5927\u6a13","note":"","note_transform":[],"latitude":"25.01395042003244","longitude":"121.21131547607342","land_area_ping":4.3,"elevator":0,"parking_draw_lots_status":0,"is_special_trade":0},{"transaction_area":"\u4e2d\u58e2\u5340","transaction_date":"108\/09","object_title":"\u65b0\u6f64A18","object_id":"L0bb107412ca779","address":"A10-3F","floor":[3],"total_floor":15,"parking_type":["\u5761\u9053\u6a5f\u68b0"],"transaction_age":-1,"total_price":898,"total_parking_price":80,"parking_amount":0,"unit_price_ping":30.98,"total_area_ping":31.56,"house_area_ping":26.4,"parking_area_ping":5.16,"public_area_ratio":0,"building_type":"\u4f4f\u5b85\u5927\u6a13","note":"","note_transform":[],"latitude":"25.01395042003244","longitude":"121.21131547607342","land_area_ping":0,"elevator":0,"parking_draw_lots_status":0,"is_special_trade":0},{"transaction_area":"\u4e2d\u58e2\u5340","transaction_date":"108\/09","object_title":"\u65b0\u6f64A18","object_id":"L0bb107412ca779","address":"A10-4F","floor":[4],"total_floor":15,"parking_type":["\u5761\u9053\u6a5f\u68b0"],"transaction_age":-1,"total_price":883,"total_parking_price":80,"parking_amount":0,"unit_price_ping":30.42,"total_area_ping":31.56,"house_area_ping":26.4,"parking_area_ping":5.16,"public_area_ratio":0,"building_type":"\u4f4f\u5b85\u5927\u6a13","note":"","note_transform":[],"latitude":"25.01395042003244","longitude":"121.21131547607342","land_area_ping":0,"elevator":0,"parking_draw_lots_status":0,"is_special_trade":0},{"transaction_area":"\u4e2d\u58e2\u5340","transaction_date":"108\/09","object_title":"\u65b0\u6f64A18","object_id":"L0bb107412ca779","address":"\u6625\u5fb7\u8def275\u865f\u56db\u6a13","floor":[4],"total_floor":15,"parking_type":["\u5761\u9053\u6a5f\u68b0"],"transaction_age":0,"total_price":883,"total_parking_price":80,"parking_amount":1,"unit_price_ping":30.53,"total_area_ping":31.48,"house_area_ping":26.3,"parking_area_ping":5.18,"public_area_ratio":34.92,"building_type":"\u4f4f\u5b85\u5927\u6a13","note":"","note_transform":[],"latitude":"25.01395042003244","longitude":"121.21131547607342","land_area_ping":4.3,"elevator":0,"parking_draw_lots_status":0,"is_special_trade":0},{"transaction_area":"\u4e2d\u58e2\u5340","transaction_date":"108\/09","object_title":"\u65b0\u6f64A18","object_id":"L0bb107412ca779","address":"A1-5F","floor":[5],"total_floor":15,"parking_type":["\u5761\u9053\u5e73\u9762"],"transaction_age":-1,"total_price":980,"total_parking_price":155,"parking_amount":0,"unit_price_ping":31.26,"total_area_ping":36.71,"house_area_ping":26.39,"parking_area_ping":10.32,"public_area_ratio":0,"building_type":"\u4f4f\u5b85\u5927\u6a13","note":"","note_transform":[],"latitude":"25.01395042003244","longitude":"121.21131547607342","land_area_ping":0,"elevator":0,"parking_draw_lots_status":0,"is_special_trade":0},{"transaction_area":"\u4e2d\u58e2\u5340","transaction_date":"108\/09","object_title":"\u65b0\u6f64A18","object_id":"L0bb107412ca779","address":"\u6625\u5fb7\u8def275\u865f\u4e8c\u6a13","floor":[2],"total_floor":15,"parking_type":["\u5761\u9053\u5e73\u9762"],"transaction_age":0,"total_price":1014,"total_parking_price":155,"parking_amount":1,"unit_price_ping":33.91,"total_area_ping":36.4,"house_area_ping":25.33,"parking_area_ping":11.07,"public_area_ratio":34.88,"building_type":"\u4f4f\u5b85\u5927\u6a13","note":"","note_transform":[],"latitude":"25.01395042003244","longitude":"121.21131547607342","land_area_ping":4.3,"elevator":0,"parking_draw_lots_status":0,"is_special_trade":0},{"transaction_area":"\u4e2d\u58e2\u5340","transaction_date":"108\/09","object_title":"\u65b0\u6f64A18","object_id":"L0bb107412ca779","address":"\u6625\u5fb7\u8def273\u865f\u5341\u4e00\u6a13","floor":[11],"total_floor":15,"parking_type":["\u5761\u9053\u5e73\u9762"],"transaction_age":0,"total_price":1200,"total_parking_price":160,"parking_amount":1,"unit_price_ping":29.71,"total_area_ping":45.33,"house_area_ping":35,"parking_area_ping":10.33,"public_area_ratio":34.81,"building_type":"\u4f4f\u5b85\u5927\u6a13","note":"","note_transform":[],"latitude":"25.01395042003244","longitude":"121.21131547607342","land_area_ping":5.69,"elevator":0,"parking_draw_lots_status":0,"is_special_trade":0},{"transaction_area":"\u4e2d\u58e2\u5340","transaction_date":"108\/09","object_title":"\u65b0\u6f64A18","object_id":"L0bb107412ca779","address":"\u6625\u5fb7\u8def287\u865f\u5341\u4e8c\u6a13","floor":[12],"total_floor":15,"parking_type":["\u5761\u9053\u6a5f\u68b0"],"transaction_age":0,"total_price":598,"total_parking_price":80,"parking_amount":1,"unit_price_ping":34.56,"total_area_ping":20.17,"house_area_ping":14.99,"parking_area_ping":5.18,"public_area_ratio":34.83,"building_type":"\u4f4f\u5b85\u5927\u6a13","note":"","note_transform":[],"latitude":"25.01395042003244","longitude":"121.21131547607342","land_area_ping":2.64,"elevator":0,"parking_draw_lots_status":0,"is_special_trade":0},{"transaction_area":"\u4e2d\u58e2\u5340","transaction_date":"108\/09","object_title":"\u65b0\u6f64A18","object_id":"L0bb107412ca779","address":"\u6625\u5fb7\u8def297\u865f\u4e94\u6a13","floor":[5],"total_floor":15,"parking_type":["\u5761\u9053\u6a5f\u68b0"],"transaction_age":0,"total_price":538,"total_parking_price":80,"parking_amount":1,"unit_price_ping":34.28,"total_area_ping":18.53,"house_area_ping":13.36,"parking_area_ping":5.18,"public_area_ratio":34.85,"building_type":"\u4f4f\u5b85\u5927\u6a13","note":"","note_transform":[],"latitude":"25.01395042003244","longitude":"121.21131547607342","land_area_ping":2.36,"elevator":0,"parking_draw_lots_status":0,"is_special_trade":0},{"transaction_area":"\u4e2d\u58e2\u5340","transaction_date":"108\/09","object_title":"\u65b0\u6f64A18","object_id":"L0bb107412ca779","address":"\u6625\u5fb7\u8def303\u865f\u5341\u56db\u6a13","floor":[14],"total_floor":15,"parking_type":["\u5761\u9053\u6a5f\u68b0"],"transaction_age":0,"total_price":540,"total_parking_price":100,"parking_amount":1,"unit_price_ping":32.88,"total_area_ping":18.56,"house_area_ping":13.38,"parking_area_ping":5.18,"public_area_ratio":34.84,"building_type":"\u4f4f\u5b85\u5927\u6a13","note":"","note_transform":[],"latitude":"25.01395042003244","longitude":"121.21131547607342","land_area_ping":2.36,"elevator":0,"parking_draw_lots_status":0,"is_special_trade":0},{"transaction_area":"\u4e2d\u58e2\u5340","transaction_date":"108\/09","object_title":"\u65b0\u6f64A18","object_id":"L0bb107412ca779","address":"\u6625\u5fb7\u8def271\u865f\u5341\u6a13","floor":[10],"total_floor":15,"parking_type":["\u5761\u9053\u6a5f\u68b0"],"transaction_age":0,"total_price":780,"total_parking_price":100,"parking_amount":1,"unit_price_ping":31.22,"total_area_ping":26.95,"house_area_ping":21.78,"parking_area_ping":5.18,"public_area_ratio":34.75,"building_type":"\u4f4f\u5b85\u5927\u6a13","note":"","note_transform":[],"latitude":"25.01395042003244","longitude":"121.21131547607342","land_area_ping":3.47,"elevator":0,"parking_draw_lots_status":0,"is_special_trade":0},{"transaction_area":"\u4e2d\u58e2\u5340","transaction_date":"108\/09","object_title":"\u65b0\u6f64A18","object_id":"L0bb107412ca779","address":"\u6625\u5fb7\u8def301\u865f\u4e94\u6a13","floor":[5],"total_floor":15,"parking_type":["\u5761\u9053\u6a5f\u68b0"],"transaction_age":0,"total_price":527,"total_parking_price":100,"parking_amount":1,"unit_price_ping":32.08,"total_area_ping":18.48,"house_area_ping":13.31,"parking_area_ping":5.18,"public_area_ratio":34.83,"building_type":"\u4f4f\u5b85\u5927\u6a13","note":"","note_transform":[],"latitude":"25.01395042003244","longitude":"121.21131547607342","land_area_ping":2.36,"elevator":0,"parking_draw_lots_status":0,"is_special_trade":0},{"transaction_area":"\u4e2d\u58e2\u5340","transaction_date":"108\/09","object_title":"\u65b0\u6f64A18","object_id":"L0bb107412ca779","address":"\u6625\u5fb7\u8def297\u865f\u5341\u56db\u6a13","floor":[14],"total_floor":15,"parking_type":["\u5761\u9053\u6a5f\u68b0"],"transaction_age":0,"total_price":540,"total_parking_price":100,"parking_amount":1,"unit_price_ping":32.93,"total_area_ping":18.53,"house_area_ping":13.36,"parking_area_ping":5.18,"public_area_ratio":34.85,"building_type":"\u4f4f\u5b85\u5927\u6a13","note":"","note_transform":[],"latitude":"25.01395042003244","longitude":"121.21131547607342","land_area_ping":2.36,"elevator":0,"parking_draw_lots_status":0,"is_special_trade":0},{"transaction_area":"\u4e2d\u58e2\u5340","transaction_date":"108\/08","object_title":"\u65b0\u6f64A18","object_id":"L0bb107412ca779","address":"B3-5F","floor":[5],"total_floor":15,"parking_type":["\u5761\u9053\u6a5f\u68b0"],"transaction_age":-1,"total_price":765,"total_parking_price":80,"parking_amount":0,"unit_price_ping":31.49,"total_area_ping":26.91,"house_area_ping":21.75,"parking_area_ping":5.16,"public_area_ratio":0,"building_type":"\u4f4f\u5b85\u5927\u6a13","note":"","note_transform":[],"latitude":"25.01395042003244","longitude":"121.21131547607342","land_area_ping":0,"elevator":0,"parking_draw_lots_status":0,"is_special_trade":0},{"transaction_area":"\u4e2d\u58e2\u5340","transaction_date":"108\/08","object_title":"\u65b0\u6f64A18","object_id":"L0bb107412ca779","address":"\u6625\u5fb7\u8def271\u865f\u4e94\u6a13","floor":[5],"total_floor":15,"parking_type":["\u5761\u9053\u6a5f\u68b0"],"transaction_age":0,"total_price":765,"total_parking_price":80,"parking_amount":1,"unit_price_ping":31.45,"total_area_ping":26.95,"house_area_ping":21.78,"parking_area_ping":5.18,"public_area_ratio":34.75,"building_type":"\u4f4f\u5b85\u5927\u6a13","note":"","note_transform":[],"latitude":"25.01395042003244","longitude":"121.21131547607342","land_area_ping":3.47,"elevator":0,"parking_draw_lots_status":0,"is_special_trade":0},{"transaction_area":"\u4e2d\u58e2\u5340","transaction_date":"108\/08","object_title":"\u65b0\u6f64A18","object_id":"L0bb107412ca779","address":"A14-3F","floor":[3],"total_floor":15,"parking_type":["\u5761\u9053\u6a5f\u68b0"],"transaction_age":-1,"total_price":508,"total_parking_price":80,"parking_amount":0,"unit_price_ping":32.16,"total_area_ping":18.47,"house_area_ping":13.31,"parking_area_ping":5.16,"public_area_ratio":0,"building_type":"\u4f4f\u5b85\u5927\u6a13","note":"","note_transform":[],"latitude":"25.01395042003244","longitude":"121.21131547607342","land_area_ping":0,"elevator":0,"parking_draw_lots_status":0,"is_special_trade":0}],"meta":{"total":844,"per_page":100,"current_page":9,"last_page":9,"from":801,"to":844}}