{"data":[{"transaction_area":"\u4e2d\u58e2\u5340","transaction_date":"110\/05","object_title":"\u65b0\u6f64A18","object_id":"L0bb107412ca779","address":"\u6625\u5fb7\u8def301\u865f\u4e94\u6a13","floor":[5],"total_floor":15,"parking_type":["\u5761\u9053\u6a5f\u68b0"],"transaction_age":1,"total_price":655,"total_parking_price":100,"parking_amount":1,"unit_price_ping":41.7,"total_area_ping":18.48,"house_area_ping":13.31,"parking_area_ping":5.18,"public_area_ratio":34.83,"building_type":"\u4f4f\u5b85\u5927\u6a13","note":"","note_transform":[],"latitude":"25.01395042003244","longitude":"121.21131547607342","land_area_ping":2.36,"elevator":1,"parking_draw_lots_status":0,"is_special_trade":0},{"transaction_area":"\u4e2d\u58e2\u5340","transaction_date":"110\/05","object_title":"\u65b0\u6f64A18","object_id":"L0bb107412ca779","address":"\u6625\u5fb7\u8def265\u865f\u5341\u56db\u6a13","floor":[14],"total_floor":15,"parking_type":["\u5761\u9053\u6a5f\u68b0"],"transaction_age":1,"total_price":830,"total_parking_price":100,"parking_amount":1,"unit_price_ping":33.05,"total_area_ping":27.27,"house_area_ping":22.09,"parking_area_ping":5.18,"public_area_ratio":34.77,"building_type":"\u4f4f\u5b85\u5927\u6a13","note":"","note_transform":[],"latitude":"25.01395042003244","longitude":"121.21131547607342","land_area_ping":3.47,"elevator":1,"parking_draw_lots_status":0,"is_special_trade":0},{"transaction_area":"\u4e2d\u58e2\u5340","transaction_date":"110\/05","object_title":"\u65b0\u6f64A18","object_id":"L0bb107412ca779","address":"\u6625\u5fb7\u8def279\u865f\u4e94\u6a13","floor":[5],"total_floor":15,"parking_type":["\u5761\u9053\u6a5f\u68b0"],"transaction_age":1,"total_price":750,"total_parking_price":100,"parking_amount":1,"unit_price_ping":43.3,"total_area_ping":20.19,"house_area_ping":15.01,"parking_area_ping":5.18,"public_area_ratio":34.86,"building_type":"\u4f4f\u5b85\u5927\u6a13","note":"","note_transform":[],"latitude":"25.01395042003244","longitude":"121.21131547607342","land_area_ping":2.64,"elevator":1,"parking_draw_lots_status":0,"is_special_trade":0},{"transaction_area":"\u4e2d\u58e2\u5340","transaction_date":"110\/04","object_title":"\u65b0\u6f64A18","object_id":"L0bb107412ca779","address":"\u6625\u5fb7\u8def257\u865f\u4e8c\u6a13","floor":[2],"total_floor":15,"parking_type":["\u5761\u9053\u5e73\u9762"],"transaction_age":1,"total_price":1380,"total_parking_price":160,"parking_amount":1,"unit_price_ping":47.27,"total_area_ping":36.15,"house_area_ping":25.81,"parking_area_ping":10.33,"public_area_ratio":34.93,"building_type":"\u4f4f\u5b85\u5927\u6a13","note":"","note_transform":[],"latitude":"25.01395042003244","longitude":"121.21131547607342","land_area_ping":4.3,"elevator":1,"parking_draw_lots_status":0,"is_special_trade":0},{"transaction_area":"\u4e2d\u58e2\u5340","transaction_date":"110\/03","object_title":"\u65b0\u6f64A18","object_id":"L0bb107412ca779","address":"\u6625\u5fb7\u8def291\u865f\u5341\u4e8c\u6a13","floor":[12],"total_floor":15,"parking_type":["\u5761\u9053\u5e73\u9762"],"transaction_age":1,"total_price":1162,"total_parking_price":160,"parking_amount":1,"unit_price_ping":38,"total_area_ping":36.7,"house_area_ping":26.37,"parking_area_ping":10.33,"public_area_ratio":34.84,"building_type":"\u4f4f\u5b85\u5927\u6a13","note":"","note_transform":[],"latitude":"25.01395042003244","longitude":"121.21131547607342","land_area_ping":4.3,"elevator":1,"parking_draw_lots_status":0,"is_special_trade":0},{"transaction_area":"\u4e2d\u58e2\u5340","transaction_date":"110\/03","object_title":"\u65b0\u6f64A18","object_id":"L0bb107412ca779","address":"\u6625\u5fb7\u8def305\u865f\u516b\u6a13","floor":[8],"total_floor":15,"parking_type":[""],"transaction_age":1,"total_price":500,"total_parking_price":0,"parking_amount":0,"unit_price_ping":37.37,"total_area_ping":13.38,"house_area_ping":13.38,"parking_area_ping":0,"public_area_ratio":34.85,"building_type":"\u4f4f\u5b85\u5927\u6a13","note":"","note_transform":[],"latitude":"25.01395042003244","longitude":"121.21131547607342","land_area_ping":2.22,"elevator":1,"parking_draw_lots_status":0,"is_special_trade":0},{"transaction_area":"\u4e2d\u58e2\u5340","transaction_date":"109\/12","object_title":"\u65b0\u6f64A18","object_id":"L0bb107412ca779","address":"\u6625\u5fb7\u8def259\u865f\u4e8c\u6a13","floor":[2],"total_floor":15,"parking_type":["\u5761\u9053\u5e73\u9762"],"transaction_age":1,"total_price":1268,"total_parking_price":110,"parking_amount":1,"unit_price_ping":47.09,"total_area_ping":34.93,"house_area_ping":24.59,"parking_area_ping":10.33,"public_area_ratio":34.88,"building_type":"\u4f4f\u5b85\u5927\u6a13","note":"","note_transform":[],"latitude":"25.01395042003244","longitude":"121.21131547607342","land_area_ping":4.02,"elevator":1,"parking_draw_lots_status":0,"is_special_trade":0},{"transaction_area":"\u4e2d\u58e2\u5340","transaction_date":"109\/12","object_title":"\u65b0\u6f64A18","object_id":"L0bb107412ca779","address":"\u6625\u5fb7\u8def279\u865f\u56db\u6a13","floor":[4],"total_floor":15,"parking_type":[""],"transaction_age":1,"total_price":515,"total_parking_price":0,"parking_amount":0,"unit_price_ping":34.31,"total_area_ping":15.01,"house_area_ping":15.01,"parking_area_ping":0,"public_area_ratio":34.86,"building_type":"\u4f4f\u5b85\u5927\u6a13","note":"","note_transform":[],"latitude":"25.01395042003244","longitude":"121.21131547607342","land_area_ping":2.5,"elevator":1,"parking_draw_lots_status":0,"is_special_trade":0},{"transaction_area":"\u4e2d\u58e2\u5340","transaction_date":"109\/10","object_title":"\u65b0\u6f64A18","object_id":"L0bb107412ca779","address":"\u6625\u5fb7\u8def271\u865f\u5341\u4e09\u6a13","floor":[13],"total_floor":15,"parking_type":["\u5761\u9053\u6a5f\u68b0"],"transaction_age":0,"total_price":980,"total_parking_price":100,"parking_amount":1,"unit_price_ping":40.4,"total_area_ping":26.95,"house_area_ping":21.78,"parking_area_ping":5.18,"public_area_ratio":34.75,"building_type":"\u4f4f\u5b85\u5927\u6a13","note":"","note_transform":[],"latitude":"25.01395042003244","longitude":"121.21131547607342","land_area_ping":3.47,"elevator":1,"parking_draw_lots_status":0,"is_special_trade":0},{"transaction_area":"\u4e2d\u58e2\u5340","transaction_date":"109\/09","object_title":"\u65b0\u6f64A18","object_id":"L0bb107412ca779","address":"\u6625\u5fb7\u8def283\u865f\u516d\u6a13","floor":[6],"total_floor":15,"parking_type":["\u5347\u964d\u6a5f\u68b0"],"transaction_age":0,"total_price":610,"total_parking_price":100,"parking_amount":1,"unit_price_ping":34.23,"total_area_ping":20.08,"house_area_ping":14.9,"parking_area_ping":5.17,"public_area_ratio":34.83,"building_type":"\u4f4f\u5b85\u5927\u6a13","note":"\u542b\u571f\u5730\u589e\u503c\u7a05\u6216\u5176\u4ed6\u7a05\u8cbb;","note_transform":["\u7a05\u8cbb\u7531\u8cb7\u65b9\u8ca0\u64d4"],"latitude":"25.01395042003244","longitude":"121.21131547607342","land_area_ping":2.64,"elevator":1,"parking_draw_lots_status":0,"is_special_trade":0},{"transaction_area":"\u4e2d\u58e2\u5340","transaction_date":"109\/09","object_title":"\u65b0\u6f64A18","object_id":"L0bb107412ca779","address":"\u6625\u5fb7\u8def293\u865f\u56db\u6a13","floor":[4],"total_floor":15,"parking_type":["\u5761\u9053\u5e73\u9762"],"transaction_age":0,"total_price":1189,"total_parking_price":160,"parking_amount":1,"unit_price_ping":35.39,"total_area_ping":39.41,"house_area_ping":29.08,"parking_area_ping":10.33,"public_area_ratio":34.7,"building_type":"\u4f4f\u5b85\u5927\u6a13","note":"","note_transform":[],"latitude":"25.01395042003244","longitude":"121.21131547607342","land_area_ping":4.58,"elevator":1,"parking_draw_lots_status":0,"is_special_trade":0},{"transaction_area":"\u4e2d\u58e2\u5340","transaction_date":"109\/09","object_title":"\u65b0\u6f64A18","object_id":"L0bb107412ca779","address":"\u6625\u5fb7\u8def307\u865f\u516d\u6a13","floor":[6],"total_floor":15,"parking_type":["\u5347\u964d\u6a5f\u68b0"],"transaction_age":0,"total_price":650,"total_parking_price":80,"parking_amount":1,"unit_price_ping":41.39,"total_area_ping":18.94,"house_area_ping":13.77,"parking_area_ping":5.17,"public_area_ratio":34.76,"building_type":"\u4f4f\u5b85\u5927\u6a13","note":"","note_transform":[],"latitude":"25.01395042003244","longitude":"121.21131547607342","land_area_ping":2.36,"elevator":1,"parking_draw_lots_status":0,"is_special_trade":0},{"transaction_area":"\u4e2d\u58e2\u5340","transaction_date":"109\/08","object_title":"\u65b0\u6f64A18","object_id":"L0bb107412ca779","address":"\u6625\u5fb7\u8def293\u865f\u4e09\u6a13","floor":[3],"total_floor":15,"parking_type":["\u5761\u9053\u5e73\u9762"],"transaction_age":0,"total_price":1120,"total_parking_price":100,"parking_amount":1,"unit_price_ping":35.08,"total_area_ping":34.26,"house_area_ping":29.08,"parking_area_ping":5.17,"public_area_ratio":34.71,"building_type":"\u4f4f\u5b85\u5927\u6a13","note":"\u542b\u4ef2\u4ecb\u8cbb;\u5730\u653f\u58eb\u670d\u52d9\u8cbb;","note_transform":["\u7a05\u8cbb\u7531\u8cb7\u65b9\u8ca0\u64d4"],"latitude":"25.01395042003244","longitude":"121.21131547607342","land_area_ping":4.58,"elevator":1,"parking_draw_lots_status":0,"is_special_trade":0},{"transaction_area":"\u4e2d\u58e2\u5340","transaction_date":"109\/08","object_title":"\u65b0\u6f64A18","object_id":"L0bb107412ca779","address":"\u6625\u5fb7\u8def255\u865f\u4e5d\u6a13","floor":[9],"total_floor":15,"parking_type":["\u5761\u9053\u5e73\u9762"],"transaction_age":0,"total_price":1145,"total_parking_price":150,"parking_amount":1,"unit_price_ping":37.49,"total_area_ping":36.88,"house_area_ping":26.54,"parking_area_ping":10.33,"public_area_ratio":36.59,"building_type":"\u4f4f\u5b85\u5927\u6a13","note":"","note_transform":[],"latitude":"25.01395042003244","longitude":"121.21131547607342","land_area_ping":4.16,"elevator":1,"parking_draw_lots_status":0,"is_special_trade":0},{"transaction_area":"\u4e2d\u58e2\u5340","transaction_date":"109\/08","object_title":"\u65b0\u6f64A18","object_id":"L0bb107412ca779","address":"\u6625\u5fb7\u8def275\u865f\u5341\u4e00\u6a13","floor":[11],"total_floor":15,"parking_type":["\u5761\u9053\u5e73\u9762"],"transaction_age":0,"total_price":1133,"total_parking_price":150,"parking_amount":1,"unit_price_ping":37.38,"total_area_ping":36.64,"house_area_ping":26.3,"parking_area_ping":10.33,"public_area_ratio":34.93,"building_type":"\u4f4f\u5b85\u5927\u6a13","note":"\u542b\u4ef2\u4ecb\u8cbb;\u5730\u653f\u58eb\u670d\u52d9\u8cbb;","note_transform":["\u7a05\u8cbb\u7531\u8cb7\u65b9\u8ca0\u64d4"],"latitude":"25.01395042003244","longitude":"121.21131547607342","land_area_ping":4.3,"elevator":1,"parking_draw_lots_status":0,"is_special_trade":0},{"transaction_area":"\u4e2d\u58e2\u5340","transaction_date":"109\/07","object_title":"\u65b0\u6f64A18","object_id":"L0bb107412ca779","address":"\u6625\u5fb7\u8def283\u865f\u5341\u4e94\u6a13","floor":[15],"total_floor":15,"parking_type":["\u5761\u9053\u6a5f\u68b0"],"transaction_age":0,"total_price":610,"total_parking_price":100,"parking_amount":1,"unit_price_ping":34.23,"total_area_ping":20.08,"house_area_ping":14.9,"parking_area_ping":5.18,"public_area_ratio":34.82,"building_type":"\u4f4f\u5b85\u5927\u6a13","note":"","note_transform":[],"latitude":"25.01395042003244","longitude":"121.21131547607342","land_area_ping":2.64,"elevator":1,"parking_draw_lots_status":0,"is_special_trade":0},{"transaction_area":"\u4e2d\u58e2\u5340","transaction_date":"109\/07","object_title":"\u65b0\u6f64A18","object_id":"L0bb107412ca779","address":"\u6625\u5fb7\u8def281\u865f\u4e8c\u6a13","floor":[2],"total_floor":15,"parking_type":["\u5761\u9053\u6a5f\u68b0"],"transaction_age":0,"total_price":600,"total_parking_price":80,"parking_amount":1,"unit_price_ping":34.71,"total_area_ping":20.16,"house_area_ping":14.98,"parking_area_ping":5.18,"public_area_ratio":34.85,"building_type":"\u4f4f\u5b85\u5927\u6a13","note":"","note_transform":[],"latitude":"25.01395042003244","longitude":"121.21131547607342","land_area_ping":2.64,"elevator":1,"parking_draw_lots_status":0,"is_special_trade":0},{"transaction_area":"\u4e2d\u58e2\u5340","transaction_date":"109\/07","object_title":"\u65b0\u6f64A18","object_id":"L0bb107412ca779","address":"\u6625\u5fb7\u8def285\u865f\u4e8c\u6a13","floor":[2],"total_floor":15,"parking_type":["\u5761\u9053\u6a5f\u68b0"],"transaction_age":0,"total_price":606,"total_parking_price":100,"parking_amount":1,"unit_price_ping":33.71,"total_area_ping":20.18,"house_area_ping":15.01,"parking_area_ping":5.17,"public_area_ratio":34.89,"building_type":"\u4f4f\u5b85\u5927\u6a13","note":"","note_transform":[],"latitude":"25.01395042003244","longitude":"121.21131547607342","land_area_ping":2.64,"elevator":1,"parking_draw_lots_status":0,"is_special_trade":0},{"transaction_area":"\u4e2d\u58e2\u5340","transaction_date":"109\/07","object_title":"\u65b0\u6f64A18","object_id":"L0bb107412ca779","address":"\u6625\u5fb7\u8def299\u865f\u4e5d\u6a13","floor":[9],"total_floor":15,"parking_type":["\u5761\u9053\u6a5f\u68b0"],"transaction_age":0,"total_price":650,"total_parking_price":100,"parking_amount":1,"unit_price_ping":41.01,"total_area_ping":18.58,"house_area_ping":13.41,"parking_area_ping":5.17,"public_area_ratio":34.84,"building_type":"\u4f4f\u5b85\u5927\u6a13","note":"","note_transform":[],"latitude":"25.01395042003244","longitude":"121.21131547607342","land_area_ping":2.36,"elevator":1,"parking_draw_lots_status":0,"is_special_trade":0},{"transaction_area":"\u4e2d\u58e2\u5340","transaction_date":"109\/07","object_title":"\u65b0\u6f64A18","object_id":"L0bb107412ca779","address":"\u6625\u5fb7\u8def265\u865f\u4e03\u6a13","floor":[7],"total_floor":15,"parking_type":["\u5761\u9053\u6a5f\u68b0"],"transaction_age":0,"total_price":842,"total_parking_price":100,"parking_amount":1,"unit_price_ping":33.59,"total_area_ping":27.27,"house_area_ping":22.09,"parking_area_ping":5.18,"public_area_ratio":34.77,"building_type":"\u4f4f\u5b85\u5927\u6a13","note":"","note_transform":[],"latitude":"25.01395042003244","longitude":"121.21131547607342","land_area_ping":3.47,"elevator":1,"parking_draw_lots_status":0,"is_special_trade":0}],"meta":{"total":844,"per_page":100,"current_page":5,"last_page":9,"from":401,"to":500}}