{"data":[{"transaction_area":"\u4e2d\u58e2\u5340","transaction_date":"108\/09","object_title":"\u65b0\u6f64A18","object_id":"L0bb107412ca779","address":"\u6625\u5fb7\u8def279\u865f\u4e8c\u6a13","floor":[2],"total_floor":15,"parking_type":[""],"transaction_age":0,"total_price":484,"total_parking_price":0,"parking_amount":0,"unit_price_ping":32.25,"total_area_ping":15.01,"house_area_ping":15.01,"parking_area_ping":0,"public_area_ratio":34.86,"building_type":"\u4f4f\u5b85\u5927\u6a13","note":"","note_transform":[],"latitude":"25.01395042003244","longitude":"121.21131547607342","land_area_ping":2.5,"elevator":0,"parking_draw_lots_status":0,"is_special_trade":0},{"transaction_area":"\u4e2d\u58e2\u5340","transaction_date":"108\/09","object_title":"\u65b0\u6f64A18","object_id":"L0bb107412ca779","address":"A18-5F","floor":[5],"total_floor":15,"parking_type":["\u5761\u9053\u5e73\u9762"],"transaction_age":-1,"total_price":1055,"total_parking_price":160,"parking_amount":0,"unit_price_ping":30.86,"total_area_ping":37.57,"house_area_ping":29,"parking_area_ping":8.57,"public_area_ratio":0,"building_type":"\u4f4f\u5b85\u5927\u6a13","note":"","note_transform":[],"latitude":"25.01395042003244","longitude":"121.21131547607342","land_area_ping":0,"elevator":0,"parking_draw_lots_status":0,"is_special_trade":0},{"transaction_area":"\u4e2d\u58e2\u5340","transaction_date":"108\/09","object_title":"\u65b0\u6f64A18","object_id":"L0bb107412ca779","address":"\u6625\u5fb7\u8def293\u865f\u4e94\u6a13","floor":[5],"total_floor":15,"parking_type":["\u5761\u9053\u5e73\u9762"],"transaction_age":0,"total_price":1055,"total_parking_price":160,"parking_amount":1,"unit_price_ping":30.78,"total_area_ping":37.7,"house_area_ping":29.08,"parking_area_ping":8.62,"public_area_ratio":34.7,"building_type":"\u4f4f\u5b85\u5927\u6a13","note":"","note_transform":[],"latitude":"25.01395042003244","longitude":"121.21131547607342","land_area_ping":4.58,"elevator":0,"parking_draw_lots_status":0,"is_special_trade":0},{"transaction_area":"\u4e2d\u58e2\u5340","transaction_date":"108\/09","object_title":"\u65b0\u6f64A18","object_id":"L0bb107412ca779","address":"\u6625\u5fb7\u8def271\u865f\u5341\u4e8c\u6a13","floor":[12],"total_floor":15,"parking_type":["\u5761\u9053\u5e73\u9762"],"transaction_age":0,"total_price":850,"total_parking_price":160,"parking_amount":1,"unit_price_ping":31.68,"total_area_ping":32.11,"house_area_ping":21.78,"parking_area_ping":10.33,"public_area_ratio":34.76,"building_type":"\u4f4f\u5b85\u5927\u6a13","note":"","note_transform":[],"latitude":"25.01395042003244","longitude":"121.21131547607342","land_area_ping":3.47,"elevator":0,"parking_draw_lots_status":0,"is_special_trade":0},{"transaction_area":"\u4e2d\u58e2\u5340","transaction_date":"108\/09","object_title":"\u65b0\u6f64A18","object_id":"L0bb107412ca779","address":"\u6625\u5fb7\u8def297\u865f\u5341\u4e09\u6a13","floor":[13],"total_floor":15,"parking_type":["\u5761\u9053\u6a5f\u68b0"],"transaction_age":0,"total_price":525,"total_parking_price":80,"parking_amount":1,"unit_price_ping":33.31,"total_area_ping":18.53,"house_area_ping":13.36,"parking_area_ping":5.18,"public_area_ratio":34.85,"building_type":"\u4f4f\u5b85\u5927\u6a13","note":"","note_transform":[],"latitude":"25.01395042003244","longitude":"121.21131547607342","land_area_ping":2.36,"elevator":0,"parking_draw_lots_status":0,"is_special_trade":0},{"transaction_area":"\u4e2d\u58e2\u5340","transaction_date":"108\/09","object_title":"\u65b0\u6f64A18","object_id":"L0bb107412ca779","address":"\u6625\u5fb7\u8def293\u865f\u4e09\u6a13","floor":[3],"total_floor":15,"parking_type":["\u5761\u9053\u6a5f\u68b0"],"transaction_age":0,"total_price":1035,"total_parking_price":80,"parking_amount":1,"unit_price_ping":32.84,"total_area_ping":34.26,"house_area_ping":29.08,"parking_area_ping":5.17,"public_area_ratio":34.71,"building_type":"\u4f4f\u5b85\u5927\u6a13","note":"","note_transform":[],"latitude":"25.01395042003244","longitude":"121.21131547607342","land_area_ping":4.58,"elevator":0,"parking_draw_lots_status":0,"is_special_trade":0},{"transaction_area":"\u4e2d\u58e2\u5340","transaction_date":"108\/09","object_title":"\u65b0\u6f64A18","object_id":"L0bb107412ca779","address":"\u6625\u5fb7\u8def291\u865f4\u6a13","floor":[4],"total_floor":15,"parking_type":["\u5761\u9053\u5e73\u9762"],"transaction_age":0,"total_price":975,"total_parking_price":165,"parking_amount":1,"unit_price_ping":30.72,"total_area_ping":36.7,"house_area_ping":26.37,"parking_area_ping":10.33,"public_area_ratio":34.84,"building_type":"\u4f4f\u5b85\u5927\u6a13","note":"","note_transform":[],"latitude":"25.01395042003244","longitude":"121.21131547607342","land_area_ping":4.3,"elevator":0,"parking_draw_lots_status":0,"is_special_trade":0},{"transaction_area":"\u4e2d\u58e2\u5340","transaction_date":"108\/09","object_title":"\u65b0\u6f64A18","object_id":"L0bb107412ca779","address":"\u6625\u5fb7\u8def291\u865f\u4e8c\u6a13","floor":[2],"total_floor":15,"parking_type":["\u5761\u9053\u5e73\u9762"],"transaction_age":0,"total_price":978,"total_parking_price":160,"parking_amount":1,"unit_price_ping":32.05,"total_area_ping":34.14,"house_area_ping":25.52,"parking_area_ping":8.62,"public_area_ratio":34.81,"building_type":"\u4f4f\u5b85\u5927\u6a13","note":"","note_transform":[],"latitude":"25.01395042003244","longitude":"121.21131547607342","land_area_ping":4.3,"elevator":0,"parking_draw_lots_status":0,"is_special_trade":0},{"transaction_area":"\u4e2d\u58e2\u5340","transaction_date":"108\/09","object_title":"\u65b0\u6f64A18","object_id":"L0bb107412ca779","address":"\u6625\u5fb7\u8def287\u865f\u4e94\u6a13","floor":[5],"total_floor":15,"parking_type":["\u5761\u9053\u6a5f\u68b0"],"transaction_age":0,"total_price":558,"total_parking_price":80,"parking_amount":1,"unit_price_ping":31.89,"total_area_ping":20.17,"house_area_ping":14.99,"parking_area_ping":5.18,"public_area_ratio":34.83,"building_type":"\u4f4f\u5b85\u5927\u6a13","note":"","note_transform":[],"latitude":"25.01395042003244","longitude":"121.21131547607342","land_area_ping":2.64,"elevator":0,"parking_draw_lots_status":0,"is_special_trade":0},{"transaction_area":"\u4e2d\u58e2\u5340","transaction_date":"108\/09","object_title":"\u65b0\u6f64A18","object_id":"L0bb107412ca779","address":"A18-3F","floor":[3],"total_floor":15,"parking_type":["\u5761\u9053\u6a5f\u68b0"],"transaction_age":-1,"total_price":1035,"total_parking_price":80,"parking_amount":0,"unit_price_ping":32.93,"total_area_ping":34.16,"house_area_ping":29,"parking_area_ping":5.16,"public_area_ratio":0,"building_type":"\u4f4f\u5b85\u5927\u6a13","note":"","note_transform":[],"latitude":"25.01395042003244","longitude":"121.21131547607342","land_area_ping":0,"elevator":0,"parking_draw_lots_status":0,"is_special_trade":0},{"transaction_area":"\u4e2d\u58e2\u5340","transaction_date":"108\/09","object_title":"\u65b0\u6f64A18","object_id":"L0bb107412ca779","address":"A1-2F","floor":[2],"total_floor":15,"parking_type":["\u5761\u9053\u5e73\u9762"],"transaction_age":-1,"total_price":978,"total_parking_price":160,"parking_amount":0,"unit_price_ping":32.05,"total_area_ping":34.09,"house_area_ping":25.52,"parking_area_ping":8.57,"public_area_ratio":0,"building_type":"\u4f4f\u5b85\u5927\u6a13","note":"","note_transform":[],"latitude":"25.01395042003244","longitude":"121.21131547607342","land_area_ping":0,"elevator":0,"parking_draw_lots_status":0,"is_special_trade":0},{"transaction_area":"\u4e2d\u58e2\u5340","transaction_date":"108\/09","object_title":"\u65b0\u6f64A18","object_id":"L0bb107412ca779","address":"A1-4F","floor":[4],"total_floor":15,"parking_type":["\u5761\u9053\u5e73\u9762"],"transaction_age":-1,"total_price":975,"total_parking_price":165,"parking_amount":0,"unit_price_ping":30.69,"total_area_ping":36.71,"house_area_ping":26.39,"parking_area_ping":10.32,"public_area_ratio":0,"building_type":"\u4f4f\u5b85\u5927\u6a13","note":"","note_transform":[],"latitude":"25.01395042003244","longitude":"121.21131547607342","land_area_ping":0,"elevator":0,"parking_draw_lots_status":0,"is_special_trade":0},{"transaction_area":"\u4e2d\u58e2\u5340","transaction_date":"108\/09","object_title":"\u65b0\u6f64A18","object_id":"L0bb107412ca779","address":"A1-3F","floor":[3],"total_floor":15,"parking_type":["\u5761\u9053\u5e73\u9762"],"transaction_age":-1,"total_price":975,"total_parking_price":160,"parking_amount":0,"unit_price_ping":30.88,"total_area_ping":36.71,"house_area_ping":26.39,"parking_area_ping":10.32,"public_area_ratio":0,"building_type":"\u4f4f\u5b85\u5927\u6a13","note":"","note_transform":[],"latitude":"25.01395042003244","longitude":"121.21131547607342","land_area_ping":0,"elevator":0,"parking_draw_lots_status":0,"is_special_trade":0},{"transaction_area":"\u4e2d\u58e2\u5340","transaction_date":"108\/09","object_title":"\u65b0\u6f64A18","object_id":"L0bb107412ca779","address":"A1-6F","floor":[6],"total_floor":15,"parking_type":["\u5761\u9053\u5e73\u9762"],"transaction_age":-1,"total_price":980,"total_parking_price":160,"parking_amount":0,"unit_price_ping":31.07,"total_area_ping":36.71,"house_area_ping":26.39,"parking_area_ping":10.32,"public_area_ratio":0,"building_type":"\u4f4f\u5b85\u5927\u6a13","note":"","note_transform":[],"latitude":"25.01395042003244","longitude":"121.21131547607342","land_area_ping":0,"elevator":0,"parking_draw_lots_status":0,"is_special_trade":0},{"transaction_area":"\u4e2d\u58e2\u5340","transaction_date":"108\/09","object_title":"\u65b0\u6f64A18","object_id":"L0bb107412ca779","address":"\u6625\u5fb7\u8def271\u865f\u4e8c\u6a13","floor":[2],"total_floor":15,"parking_type":["\u5761\u9053\u6a5f\u68b0"],"transaction_age":0,"total_price":785,"total_parking_price":80,"parking_amount":1,"unit_price_ping":33.91,"total_area_ping":25.97,"house_area_ping":20.79,"parking_area_ping":5.18,"public_area_ratio":34.8,"building_type":"\u4f4f\u5b85\u5927\u6a13","note":"","note_transform":[],"latitude":"25.01395042003244","longitude":"121.21131547607342","land_area_ping":3.47,"elevator":0,"parking_draw_lots_status":0,"is_special_trade":0},{"transaction_area":"\u4e2d\u58e2\u5340","transaction_date":"108\/09","object_title":"\u65b0\u6f64A18","object_id":"L0bb107412ca779","address":"\u6625\u5fb7\u8def265\u865f\u516d\u6a13","floor":[6],"total_floor":15,"parking_type":["\u5761\u9053\u5e73\u9762"],"transaction_age":0,"total_price":840,"total_parking_price":160,"parking_amount":1,"unit_price_ping":30.78,"total_area_ping":33.16,"house_area_ping":22.09,"parking_area_ping":11.07,"public_area_ratio":34.77,"building_type":"\u4f4f\u5b85\u5927\u6a13","note":"","note_transform":[],"latitude":"25.01395042003244","longitude":"121.21131547607342","land_area_ping":3.47,"elevator":0,"parking_draw_lots_status":0,"is_special_trade":0},{"transaction_area":"\u4e2d\u58e2\u5340","transaction_date":"108\/09","object_title":"\u65b0\u6f64A18","object_id":"L0bb107412ca779","address":"B3-2F","floor":[2],"total_floor":15,"parking_type":["\u5761\u9053\u6a5f\u68b0"],"transaction_age":-1,"total_price":785,"total_parking_price":80,"parking_amount":0,"unit_price_ping":33.91,"total_area_ping":25.95,"house_area_ping":20.79,"parking_area_ping":5.16,"public_area_ratio":0,"building_type":"\u4f4f\u5b85\u5927\u6a13","note":"","note_transform":[],"latitude":"25.01395042003244","longitude":"121.21131547607342","land_area_ping":0,"elevator":0,"parking_draw_lots_status":0,"is_special_trade":0},{"transaction_area":"\u4e2d\u58e2\u5340","transaction_date":"108\/09","object_title":"\u65b0\u6f64A18","object_id":"L0bb107412ca779","address":"\u6625\u5fb7\u8def253\u865f\u516b\u6a13","floor":[8],"total_floor":15,"parking_type":["\u5761\u9053\u5e73\u9762"],"transaction_age":0,"total_price":1338,"total_parking_price":305,"parking_amount":2,"unit_price_ping":29.64,"total_area_ping":53.8,"house_area_ping":34.85,"parking_area_ping":18.95,"public_area_ratio":34.86,"building_type":"\u4f4f\u5b85\u5927\u6a13","note":"","note_transform":[],"latitude":"25.01395042003244","longitude":"121.21131547607342","land_area_ping":5.83,"elevator":0,"parking_draw_lots_status":0,"is_special_trade":0},{"transaction_area":"\u4e2d\u58e2\u5340","transaction_date":"108\/09","object_title":"\u65b0\u6f64A18","object_id":"L0bb107412ca779","address":"\u6625\u5fb7\u8def275\u865f\u4e94\u6a13","floor":[5],"total_floor":15,"parking_type":["\u5761\u9053\u5e73\u9762"],"transaction_age":0,"total_price":1035,"total_parking_price":165,"parking_amount":1,"unit_price_ping":33.08,"total_area_ping":36.64,"house_area_ping":26.3,"parking_area_ping":10.33,"public_area_ratio":34.93,"building_type":"\u4f4f\u5b85\u5927\u6a13","note":"","note_transform":[],"latitude":"25.01395042003244","longitude":"121.21131547607342","land_area_ping":4.3,"elevator":0,"parking_draw_lots_status":0,"is_special_trade":0},{"transaction_area":"\u4e2d\u58e2\u5340","transaction_date":"108\/09","object_title":"\u65b0\u6f64A18","object_id":"L0bb107412ca779","address":"\u6625\u5fb7\u8def291\u865f\u4e09\u6a13","floor":[3],"total_floor":15,"parking_type":["\u5761\u9053\u5e73\u9762"],"transaction_age":0,"total_price":975,"total_parking_price":160,"parking_amount":1,"unit_price_ping":30.91,"total_area_ping":36.7,"house_area_ping":26.37,"parking_area_ping":10.33,"public_area_ratio":34.84,"building_type":"\u4f4f\u5b85\u5927\u6a13","note":"","note_transform":[],"latitude":"25.01395042003244","longitude":"121.21131547607342","land_area_ping":4.3,"elevator":0,"parking_draw_lots_status":0,"is_special_trade":0}],"meta":{"total":844,"per_page":100,"current_page":8,"last_page":9,"from":701,"to":800}}